<?xml version="1.0" encoding="utf-8"?>
<!DOCTYPE eagle SYSTEM "eagle.dtd">
<eagle version="7.5.0">
<drawing>
<settings>
<setting alwaysvectorfont="no"/>
<setting verticaltext="up"/>
</settings>
<grid distance="12.5" unitdist="mil" unit="mil" style="dots" multiple="1" display="yes" altdistance="0.025" altunitdist="inch" altunit="inch"/>
<layers>
<layer number="1" name="Top" color="4" fill="1" visible="yes" active="yes"/>
<layer number="16" name="Bottom" color="1" fill="1" visible="yes" active="yes"/>
<layer number="17" name="Pads" color="2" fill="1" visible="yes" active="yes"/>
<layer number="18" name="Vias" color="2" fill="1" visible="yes" active="yes"/>
<layer number="19" name="Unrouted" color="6" fill="1" visible="yes" active="yes"/>
<layer number="20" name="Dimension" color="15" fill="1" visible="yes" active="yes"/>
<layer number="21" name="tPlace" color="7" fill="1" visible="yes" active="yes"/>
<layer number="22" name="bPlace" color="7" fill="1" visible="yes" active="yes"/>
<layer number="23" name="tOrigins" color="15" fill="1" visible="yes" active="yes"/>
<layer number="24" name="bOrigins" color="15" fill="1" visible="yes" active="yes"/>
<layer number="25" name="tNames" color="7" fill="1" visible="yes" active="yes"/>
<layer number="26" name="bNames" color="7" fill="1" visible="yes" active="yes"/>
<layer number="27" name="tValues" color="7" fill="1" visible="no" active="yes"/>
<layer number="28" name="bValues" color="7" fill="1" visible="no" active="yes"/>
<layer number="29" name="tStop" color="7" fill="3" visible="no" active="yes"/>
<layer number="30" name="bStop" color="7" fill="6" visible="no" active="yes"/>
<layer number="31" name="tCream" color="7" fill="4" visible="no" active="yes"/>
<layer number="32" name="bCream" color="7" fill="5" visible="no" active="yes"/>
<layer number="33" name="tFinish" color="6" fill="3" visible="no" active="yes"/>
<layer number="34" name="bFinish" color="6" fill="6" visible="no" active="yes"/>
<layer number="35" name="tGlue" color="7" fill="4" visible="no" active="yes"/>
<layer number="36" name="bGlue" color="7" fill="5" visible="no" active="yes"/>
<layer number="37" name="tTest" color="7" fill="1" visible="no" active="yes"/>
<layer number="38" name="bTest" color="7" fill="1" visible="no" active="yes"/>
<layer number="39" name="tKeepout" color="4" fill="11" visible="yes" active="yes"/>
<layer number="40" name="bKeepout" color="1" fill="11" visible="yes" active="yes"/>
<layer number="41" name="tRestrict" color="4" fill="10" visible="yes" active="yes"/>
<layer number="42" name="bRestrict" color="1" fill="10" visible="yes" active="yes"/>
<layer number="43" name="vRestrict" color="2" fill="10" visible="yes" active="yes"/>
<layer number="44" name="Drills" color="7" fill="1" visible="no" active="yes"/>
<layer number="45" name="Holes" color="7" fill="1" visible="no" active="yes"/>
<layer number="46" name="Milling" color="3" fill="1" visible="yes" active="yes"/>
<layer number="47" name="Measures" color="7" fill="1" visible="no" active="yes"/>
<layer number="48" name="Document" color="7" fill="1" visible="yes" active="yes"/>
<layer number="49" name="Reference" color="7" fill="1" visible="yes" active="yes"/>
<layer number="51" name="tDocu" color="7" fill="1" visible="yes" active="yes"/>
<layer number="52" name="bDocu" color="7" fill="1" visible="yes" active="yes"/>
<layer number="90" name="Modules" color="5" fill="1" visible="no" active="no"/>
<layer number="91" name="Nets" color="2" fill="1" visible="no" active="no"/>
<layer number="92" name="Busses" color="1" fill="1" visible="no" active="no"/>
<layer number="93" name="Pins" color="2" fill="1" visible="no" active="no"/>
<layer number="94" name="Symbols" color="4" fill="1" visible="no" active="no"/>
<layer number="95" name="Names" color="7" fill="1" visible="no" active="no"/>
<layer number="96" name="Values" color="7" fill="1" visible="no" active="no"/>
<layer number="97" name="Info" color="7" fill="1" visible="no" active="no"/>
<layer number="98" name="Guide" color="6" fill="1" visible="no" active="no"/>
<layer number="99" name="SpiceOrder" color="5" fill="1" visible="no" active="no"/>
</layers>
<board>
<plain>
<wire x1="0" y1="0.3175" x2="27.305" y2="0.3175" width="0" layer="20"/>
<wire x1="27.305" y1="0.3175" x2="27.305" y2="40.3225" width="0" layer="20"/>
<wire x1="27.305" y1="40.3225" x2="0" y2="40.3225" width="0" layer="20"/>
<wire x1="0" y1="40.3225" x2="0" y2="0.3175" width="0" layer="20"/>
<text x="23.8125" y="2.54" size="0.8128" layer="1" font="vector" ratio="19">2018</text>
<rectangle x1="0" y1="39.3065" x2="27.305" y2="40.3225" layer="39"/>
<rectangle x1="0" y1="0.3175" x2="27.305" y2="1.3335" layer="39"/>
<rectangle x1="0" y1="39.3065" x2="27.305" y2="40.3225" layer="40"/>
<rectangle x1="0" y1="0.3175" x2="27.305" y2="1.3335" layer="40"/>
</plain>
<libraries>
<library name="rcl">
<description>&lt;b&gt;Resistors, Capacitors, Inductors&lt;/b&gt;&lt;p&gt;
Based on the previous libraries:
&lt;ul&gt;
&lt;li&gt;r.lbr
&lt;li&gt;cap.lbr 
&lt;li&gt;cap-fe.lbr
&lt;li&gt;captant.lbr
&lt;li&gt;polcap.lbr
&lt;li&gt;ipc-smd.lbr
&lt;/ul&gt;
All SMD packages are defined according to the IPC specifications and  CECC&lt;p&gt;
&lt;author&gt;Created by librarian@cadsoft.de&lt;/author&gt;&lt;p&gt;
&lt;p&gt;
for Electrolyt Capacitors see also :&lt;p&gt;
www.bccomponents.com &lt;p&gt;
www.panasonic.com&lt;p&gt;
www.kemet.com&lt;p&gt;
http://www.secc.co.jp/pdf/os_e/2004/e_os_all.pdf &lt;b&gt;(SANYO)&lt;/b&gt;
&lt;p&gt;
for trimmer refence see : &lt;u&gt;www.electrospec-inc.com/cross_references/trimpotcrossref.asp&lt;/u&gt;&lt;p&gt;

&lt;table border=0 cellspacing=0 cellpadding=0 width="100%" cellpaddding=0&gt;
&lt;tr valign="top"&gt;

&lt;! &lt;td width="10"&gt;&amp;nbsp;&lt;/td&gt;
&lt;td width="90%"&gt;

&lt;b&gt;&lt;font color="#0000FF" size="4"&gt;TRIM-POT CROSS REFERENCE&lt;/font&gt;&lt;/b&gt;
&lt;P&gt;
&lt;TABLE BORDER=0 CELLSPACING=1 CELLPADDING=2&gt;
  &lt;TR&gt;
    &lt;TD COLSPAN=8&gt;
      &lt;FONT SIZE=3 FACE=ARIAL&gt;&lt;B&gt;RECTANGULAR MULTI-TURN&lt;/B&gt;&lt;/FONT&gt;
    &lt;/TD&gt;
  &lt;/TR&gt;
  &lt;TR&gt;
    &lt;TD ALIGN=CENTER&gt;
      &lt;B&gt;
      &lt;FONT SIZE=3 FACE=ARIAL color="#FF0000"&gt;BOURNS&lt;/FONT&gt;
      &lt;/B&gt;
    &lt;/TD&gt;
    &lt;TD ALIGN=CENTER&gt;
      &lt;B&gt;
      &lt;FONT SIZE=3 FACE=ARIAL color="#FF0000"&gt;BI&amp;nbsp;TECH&lt;/FONT&gt;
      &lt;/B&gt;
    &lt;/TD&gt;
    &lt;TD ALIGN=CENTER&gt;
      &lt;B&gt;
      &lt;FONT SIZE=3 FACE=ARIAL color="#FF0000"&gt;DALE-VISHAY&lt;/FONT&gt;
      &lt;/B&gt;
    &lt;/TD&gt;
    &lt;TD ALIGN=CENTER&gt;
      &lt;B&gt;
      &lt;FONT SIZE=3 FACE=ARIAL color="#FF0000"&gt;PHILIPS/MEPCO&lt;/FONT&gt;
      &lt;/B&gt;
    &lt;/TD&gt;
    &lt;TD ALIGN=CENTER&gt;
      &lt;B&gt;
      &lt;FONT SIZE=3 FACE=ARIAL color="#FF0000"&gt;MURATA&lt;/FONT&gt;
      &lt;/B&gt;
    &lt;/TD&gt;
    &lt;TD ALIGN=CENTER&gt;
      &lt;B&gt;
      &lt;FONT SIZE=3 FACE=ARIAL color="#FF0000"&gt;PANASONIC&lt;/FONT&gt;
      &lt;/B&gt;
    &lt;/TD&gt;
    &lt;TD ALIGN=CENTER&gt;
      &lt;B&gt;
      &lt;FONT SIZE=3 FACE=ARIAL color="#FF0000"&gt;SPECTROL&lt;/FONT&gt;
      &lt;/B&gt;
    &lt;/TD&gt;
    &lt;TD ALIGN=CENTER&gt;
      &lt;B&gt;
      &lt;FONT SIZE=3 FACE=ARIAL color="#FF0000"&gt;MILSPEC&lt;/FONT&gt;
      &lt;/B&gt;
    &lt;/TD&gt;&lt;TD&gt;&amp;nbsp;&lt;/TD&gt;
  &lt;/TR&gt;
  &lt;TR&gt;
    &lt;TD BGCOLOR="#cccccc" ALIGN=CENTER&gt;&lt;FONT FACE=ARIAL SIZE=3 &gt;
      3005P&lt;BR&gt;
      3006P&lt;BR&gt;
      3006W&lt;BR&gt;
      3006Y&lt;BR&gt;
      3009P&lt;BR&gt;
      3009W&lt;BR&gt;
      3009Y&lt;BR&gt;
      3057J&lt;BR&gt;
      3057L&lt;BR&gt;
      3057P&lt;BR&gt;
      3057Y&lt;BR&gt;
      3059J&lt;BR&gt;
      3059L&lt;BR&gt;
      3059P&lt;BR&gt;
      3059Y&lt;BR&gt;&lt;/FONT&gt;
    &lt;/TD&gt;
    &lt;TD BGCOLOR="#cccccc" ALIGN=CENTER&gt;&lt;FONT FACE=ARIAL SIZE=3&gt;
      -&lt;BR&gt;
      89P&lt;BR&gt;
      89W&lt;BR&gt;
      89X&lt;BR&gt;
      89PH&lt;BR&gt;
      76P&lt;BR&gt;
      89XH&lt;BR&gt;
      78SLT&lt;BR&gt;
      78L&amp;nbsp;ALT&lt;BR&gt;
      56P&amp;nbsp;ALT&lt;BR&gt;
      78P&amp;nbsp;ALT&lt;BR&gt;
      T8S&lt;BR&gt;
      78L&lt;BR&gt;
      56P&lt;BR&gt;
      78P&lt;BR&gt;&lt;/FONT&gt;
    &lt;/TD&gt;
    &lt;TD BGCOLOR="#cccccc" ALIGN=CENTER&gt;&lt;FONT FACE=ARIAL SIZE=3&gt;
      -&lt;BR&gt;
      T18/784&lt;BR&gt;
      783&lt;BR&gt;
      781&lt;BR&gt;
      -&lt;BR&gt;
      -&lt;BR&gt;
      -&lt;BR&gt;
      2199&lt;BR&gt;
      1697/1897&lt;BR&gt;
      1680/1880&lt;BR&gt;
      2187&lt;BR&gt;
      -&lt;BR&gt;
      -&lt;BR&gt;
      -&lt;BR&gt;
      -&lt;BR&gt;&lt;/FONT&gt;
    &lt;/TD&gt;
    &lt;TD BGCOLOR="#cccccc" ALIGN=CENTER&gt;&lt;FONT FACE=ARIAL SIZE=3&gt;
      -&lt;BR&gt;
      8035EKP/CT20/RJ-20P&lt;BR&gt;
      -&lt;BR&gt;
      RJ-20X&lt;BR&gt;
      -&lt;BR&gt;
      -&lt;BR&gt;
      -&lt;BR&gt;
      1211L&lt;BR&gt;
      8012EKQ&amp;nbsp;ALT&lt;BR&gt;
      8012EKR&amp;nbsp;ALT&lt;BR&gt;
      1211P&lt;BR&gt;
      8012EKJ&lt;BR&gt;
      8012EKL&lt;BR&gt;
      8012EKQ&lt;BR&gt;
      8012EKR&lt;BR&gt;&lt;/FONT&gt;
    &lt;/TD&gt;
    &lt;TD BGCOLOR="#cccccc" ALIGN=CENTER&gt;&lt;FONT FACE=ARIAL SIZE=3&gt;
      -&lt;BR&gt;
      2101P&lt;BR&gt;
      2101W&lt;BR&gt;
      2101Y&lt;BR&gt;
      -&lt;BR&gt;
      -&lt;BR&gt;
      -&lt;BR&gt;
      -&lt;BR&gt;
      -&lt;BR&gt;
      -&lt;BR&gt;
      -&lt;BR&gt;
      -&lt;BR&gt;
      2102L&lt;BR&gt;
      2102S&lt;BR&gt;
      2102Y&lt;BR&gt;&lt;/FONT&gt;
    &lt;/TD&gt;
    &lt;TD BGCOLOR="#cccccc" ALIGN=CENTER&gt;&lt;FONT FACE=ARIAL SIZE=3&gt;
      -&lt;BR&gt;
      EVMCOG&lt;BR&gt;
      -&lt;BR&gt;
      -&lt;BR&gt;
      -&lt;BR&gt;
      -&lt;BR&gt;
      -&lt;BR&gt;
      -&lt;BR&gt;
      -&lt;BR&gt;
      -&lt;BR&gt;
      -&lt;BR&gt;
      -&lt;BR&gt;
      -&lt;BR&gt;
      -&lt;BR&gt;
      -&lt;BR&gt;&lt;/FONT&gt;
    &lt;/TD&gt;
    &lt;TD BGCOLOR="#cccccc" ALIGN=CENTER&gt;&lt;FONT FACE=ARIAL SIZE=3&gt;
      -&lt;BR&gt;
      43P&lt;BR&gt;
      43W&lt;BR&gt;
      43Y&lt;BR&gt;
      -&lt;BR&gt;
      -&lt;BR&gt;
      -&lt;BR&gt;
      -&lt;BR&gt;
      40L&lt;BR&gt;
      40P&lt;BR&gt;
      40Y&lt;BR&gt;
      70Y-T602&lt;BR&gt;
      70L&lt;BR&gt;
      70P&lt;BR&gt;
      70Y&lt;BR&gt;&lt;/FONT&gt;
    &lt;/TD&gt;
    &lt;TD BGCOLOR="#cccccc" ALIGN=CENTER&gt;&lt;FONT FACE=ARIAL SIZE=3&gt;
      -&lt;BR&gt;
      -&lt;BR&gt;
      -&lt;BR&gt;
      -&lt;BR&gt;
      -&lt;BR&gt;
      -&lt;BR&gt;
      -&lt;BR&gt;
      -&lt;BR&gt;
      RT/RTR12&lt;BR&gt;
      RT/RTR12&lt;BR&gt;
      RT/RTR12&lt;BR&gt;
      -&lt;BR&gt;
      RJ/RJR12&lt;BR&gt;
      RJ/RJR12&lt;BR&gt;
      RJ/RJR12&lt;BR&gt;&lt;/FONT&gt;
    &lt;/TD&gt;
  &lt;/TR&gt;
  &lt;TR&gt;
    &lt;TD COLSPAN=8&gt;&amp;nbsp;
    &lt;/TD&gt;
  &lt;/TR&gt;
  &lt;TR&gt;
    &lt;TD COLSPAN=8&gt;
      &lt;FONT SIZE=4 FACE=ARIAL&gt;&lt;B&gt;SQUARE MULTI-TURN&lt;/B&gt;&lt;/FONT&gt;
    &lt;/TD&gt;
  &lt;/TR&gt;
  &lt;TR&gt;
   &lt;TD ALIGN=CENTER&gt;
      &lt;FONT SIZE=3 FACE=ARIAL&gt;&lt;B&gt;BOURN&lt;/B&gt;&lt;/FONT&gt;
    &lt;/TD&gt;
    &lt;TD ALIGN=CENTER&gt;
      &lt;FONT SIZE=3 FACE=ARIAL&gt;&lt;B&gt;BI&amp;nbsp;TECH&lt;/B&gt;&lt;/FONT&gt;
    &lt;/TD&gt;
    &lt;TD ALIGN=CENTER&gt;
      &lt;FONT SIZE=3 FACE=ARIAL&gt;&lt;B&gt;DALE-VISHAY&lt;/B&gt;&lt;/FONT&gt;
    &lt;/TD&gt;
    &lt;TD ALIGN=CENTER&gt;
      &lt;FONT SIZE=3 FACE=ARIAL&gt;&lt;B&gt;PHILIPS/MEPCO&lt;/B&gt;&lt;/FONT&gt;
    &lt;/TD&gt;
    &lt;TD ALIGN=CENTER&gt;
      &lt;FONT SIZE=3 FACE=ARIAL&gt;&lt;B&gt;MURATA&lt;/B&gt;&lt;/FONT&gt;
    &lt;/TD&gt;
    &lt;TD ALIGN=CENTER&gt;
      &lt;FONT SIZE=3 FACE=ARIAL&gt;&lt;B&gt;PANASONIC&lt;/B&gt;&lt;/FONT&gt;
    &lt;/TD&gt;
    &lt;TD ALIGN=CENTER&gt;
      &lt;FONT SIZE=3 FACE=ARIAL&gt;&lt;B&gt;SPECTROL&lt;/B&gt;&lt;/FONT&gt;
    &lt;/TD&gt;
    &lt;TD ALIGN=CENTER&gt;
      &lt;FONT SIZE=3 FACE=ARIAL&gt;&lt;B&gt;MILSPEC&lt;/B&gt;&lt;/FONT&gt;
    &lt;/TD&gt;
  &lt;/TR&gt;
  &lt;TR&gt;
    &lt;TD BGCOLOR="#cccccc" ALIGN=CENTER&gt;&lt;FONT FACE=ARIAL SIZE=3&gt;
      3250L&lt;BR&gt;
      3250P&lt;BR&gt;
      3250W&lt;BR&gt;
      3250X&lt;BR&gt;
      3252P&lt;BR&gt;
      3252W&lt;BR&gt;
      3252X&lt;BR&gt;
      3260P&lt;BR&gt;
      3260W&lt;BR&gt;
      3260X&lt;BR&gt;
      3262P&lt;BR&gt;
      3262W&lt;BR&gt;
      3262X&lt;BR&gt;
      3266P&lt;BR&gt;
      3266W&lt;BR&gt;
      3266X&lt;BR&gt;
      3290H&lt;BR&gt;
      3290P&lt;BR&gt;
      3290W&lt;BR&gt;
      3292P&lt;BR&gt;
      3292W&lt;BR&gt;
      3292X&lt;BR&gt;
      3296P&lt;BR&gt;
      3296W&lt;BR&gt;
      3296X&lt;BR&gt;
      3296Y&lt;BR&gt;
      3296Z&lt;BR&gt;
      3299P&lt;BR&gt;
      3299W&lt;BR&gt;
      3299X&lt;BR&gt;
      3299Y&lt;BR&gt;
      3299Z&lt;BR&gt;&lt;/FONT&gt;
    &lt;/TD&gt;
    &lt;TD BGCOLOR="#cccccc" ALIGN=CENTER&gt;&lt;FONT FACE=ARIAL SIZE=3&gt;
      -&lt;BR&gt;
      66P&amp;nbsp;ALT&lt;BR&gt;
      66W&amp;nbsp;ALT&lt;BR&gt;
      66X&amp;nbsp;ALT&lt;BR&gt;
      66P&amp;nbsp;ALT&lt;BR&gt;
      66W&amp;nbsp;ALT&lt;BR&gt;
      66X&amp;nbsp;ALT&lt;BR&gt;
      -&lt;BR&gt;
      64W&amp;nbsp;ALT&lt;BR&gt;
      -&lt;BR&gt;
      64P&amp;nbsp;ALT&lt;BR&gt;
      64W&amp;nbsp;ALT&lt;BR&gt;
      64X&amp;nbsp;ALT&lt;BR&gt;
      64P&lt;BR&gt;
      64W&lt;BR&gt;
      64X&lt;BR&gt;
      66X&amp;nbsp;ALT&lt;BR&gt;
      66P&amp;nbsp;ALT&lt;BR&gt;
      66W&amp;nbsp;ALT&lt;BR&gt;
      66P&lt;BR&gt;
      66W&lt;BR&gt;
      66X&lt;BR&gt;
      67P&lt;BR&gt;
      67W&lt;BR&gt;
      67X&lt;BR&gt;
      67Y&lt;BR&gt;
      67Z&lt;BR&gt;
      68P&lt;BR&gt;
      68W&lt;BR&gt;
      68X&lt;BR&gt;
      67Y&amp;nbsp;ALT&lt;BR&gt;
      67Z&amp;nbsp;ALT&lt;BR&gt;&lt;/FONT&gt;
    &lt;/TD&gt;
    &lt;TD BGCOLOR="#cccccc" ALIGN=CENTER&gt;&lt;FONT FACE=ARIAL SIZE=3&gt;
      5050&lt;BR&gt;
      5091&lt;BR&gt;
      5080&lt;BR&gt;
      5087&lt;BR&gt;
      -&lt;BR&gt;
      -&lt;BR&gt;
      -&lt;BR&gt;
      -&lt;BR&gt;
      -&lt;BR&gt;
      -&lt;BR&gt;
      -&lt;BR&gt;
      T63YB&lt;BR&gt;
      T63XB&lt;BR&gt;
      -&lt;BR&gt;
      -&lt;BR&gt;
      -&lt;BR&gt;
      5887&lt;BR&gt;
      5891&lt;BR&gt;
      5880&lt;BR&gt;
      -&lt;BR&gt;
      -&lt;BR&gt;
      -&lt;BR&gt;
      T93Z&lt;BR&gt;
      T93YA&lt;BR&gt;
      T93XA&lt;BR&gt;
      T93YB&lt;BR&gt;
      T93XB&lt;BR&gt;
      -&lt;BR&gt;
      -&lt;BR&gt;
      -&lt;BR&gt;
      -&lt;BR&gt;
      -&lt;BR&gt;&lt;/FONT&gt;
    &lt;/TD&gt;
    &lt;TD BGCOLOR="#cccccc" ALIGN=CENTER&gt;&lt;FONT FACE=ARIAL SIZE=3&gt;
      -&lt;BR&gt;
      -&lt;BR&gt;
      -&lt;BR&gt;
      -&lt;BR&gt;
      -&lt;BR&gt;
      -&lt;BR&gt;
      -&lt;BR&gt;
      -&lt;BR&gt;
      -&lt;BR&gt;
      -&lt;BR&gt;
      8026EKP&lt;BR&gt;
      8026EKW&lt;BR&gt;
      8026EKM&lt;BR&gt;
      8026EKP&lt;BR&gt;
      8026EKB&lt;BR&gt;
      8026EKM&lt;BR&gt;
      1309X&lt;BR&gt;
      1309P&lt;BR&gt;
      1309W&lt;BR&gt;
      8024EKP&lt;BR&gt;
      8024EKW&lt;BR&gt;
      8024EKN&lt;BR&gt;
      RJ-9P/CT9P&lt;BR&gt;
      RJ-9W&lt;BR&gt;
      RJ-9X&lt;BR&gt;
      -&lt;BR&gt;
      -&lt;BR&gt;
      -&lt;BR&gt;
      -&lt;BR&gt;
      -&lt;BR&gt;
      -&lt;BR&gt;
      -&lt;BR&gt;&lt;/FONT&gt;
    &lt;/TD&gt;
    &lt;TD BGCOLOR="#cccccc" ALIGN=CENTER&gt;&lt;FONT FACE=ARIAL SIZE=3&gt;
      -&lt;BR&gt;
      -&lt;BR&gt;
      -&lt;BR&gt;
      -&lt;BR&gt;
      -&lt;BR&gt;
      -&lt;BR&gt;
      -&lt;BR&gt;
      -&lt;BR&gt;
      -&lt;BR&gt;
      -&lt;BR&gt;
      3103P&lt;BR&gt;
      3103Y&lt;BR&gt;
      3103Z&lt;BR&gt;
      3103P&lt;BR&gt;
      3103Y&lt;BR&gt;
      3103Z&lt;BR&gt;
      -&lt;BR&gt;
      -&lt;BR&gt;
      -&lt;BR&gt;
      -&lt;BR&gt;
      -&lt;BR&gt;
      -&lt;BR&gt;
      3105P/3106P&lt;BR&gt;
      3105W/3106W&lt;BR&gt;
      3105X/3106X&lt;BR&gt;
      3105Y/3106Y&lt;BR&gt;
      3105Z/3105Z&lt;BR&gt;
      3102P&lt;BR&gt;
      3102W&lt;BR&gt;
      3102X&lt;BR&gt;
      3102Y&lt;BR&gt;
      3102Z&lt;BR&gt;&lt;/FONT&gt;
    &lt;/TD&gt;
    &lt;TD BGCOLOR="#cccccc" ALIGN=CENTER&gt;&lt;FONT FACE=ARIAL SIZE=3&gt;
      -&lt;BR&gt;
      -&lt;BR&gt;
      -&lt;BR&gt;
      -&lt;BR&gt;
      -&lt;BR&gt;
      -&lt;BR&gt;
      -&lt;BR&gt;
      -&lt;BR&gt;
      -&lt;BR&gt;
      -&lt;BR&gt;
      -&lt;BR&gt;
      -&lt;BR&gt;
      -&lt;BR&gt;
      -&lt;BR&gt;
      -&lt;BR&gt;
      -&lt;BR&gt;
      -&lt;BR&gt;
      -&lt;BR&gt;
      -&lt;BR&gt;
      -&lt;BR&gt;
      -&lt;BR&gt;
      -&lt;BR&gt;
      EVMCBG&lt;BR&gt;
      EVMCCG&lt;BR&gt;
      -&lt;BR&gt;
      -&lt;BR&gt;
      -&lt;BR&gt;
      -&lt;BR&gt;
      -&lt;BR&gt;
      -&lt;BR&gt;
      -&lt;BR&gt;
      -&lt;BR&gt;&lt;/FONT&gt;
    &lt;/TD&gt;
    &lt;TD BGCOLOR="#cccccc" ALIGN=CENTER&gt;&lt;FONT FACE=ARIAL SIZE=3&gt;
      55-1-X&lt;BR&gt;
      55-4-X&lt;BR&gt;
      55-3-X&lt;BR&gt;
      55-2-X&lt;BR&gt;
      -&lt;BR&gt;
      -&lt;BR&gt;
      -&lt;BR&gt;
      -&lt;BR&gt;
      -&lt;BR&gt;
      -&lt;BR&gt;
      -&lt;BR&gt;
      -&lt;BR&gt;
      -&lt;BR&gt;
      -&lt;BR&gt;
      -&lt;BR&gt;
      -&lt;BR&gt;
      50-2-X&lt;BR&gt;
      50-4-X&lt;BR&gt;
      50-3-X&lt;BR&gt;
      -&lt;BR&gt;
      -&lt;BR&gt;
      -&lt;BR&gt;
      64P&lt;BR&gt;
      64W&lt;BR&gt;
      64X&lt;BR&gt;
      64Y&lt;BR&gt;
      64Z&lt;BR&gt;
      -&lt;BR&gt;
      -&lt;BR&gt;
      -&lt;BR&gt;
      -&lt;BR&gt;
      -&lt;BR&gt;&lt;/FONT&gt;
    &lt;/TD&gt;
    &lt;TD BGCOLOR="#cccccc" ALIGN=CENTER&gt;&lt;FONT FACE=ARIAL SIZE=3&gt;
      RT/RTR22&lt;BR&gt;
      RT/RTR22&lt;BR&gt;
      RT/RTR22&lt;BR&gt;
      RT/RTR22&lt;BR&gt;
      RJ/RJR22&lt;BR&gt;
      RJ/RJR22&lt;BR&gt;
      RJ/RJR22&lt;BR&gt;
      RT/RTR26&lt;BR&gt;
      RT/RTR26&lt;BR&gt;
      RT/RTR26&lt;BR&gt;
      RJ/RJR26&lt;BR&gt;
      RJ/RJR26&lt;BR&gt;
      RJ/RJR26&lt;BR&gt;
      RJ/RJR26&lt;BR&gt;
      RJ/RJR26&lt;BR&gt;
      RJ/RJR26&lt;BR&gt;
      RT/RTR24&lt;BR&gt;
      RT/RTR24&lt;BR&gt;
      RT/RTR24&lt;BR&gt;
      RJ/RJR24&lt;BR&gt;
      RJ/RJR24&lt;BR&gt;
      RJ/RJR24&lt;BR&gt;
      RJ/RJR24&lt;BR&gt;
      RJ/RJR24&lt;BR&gt;
      RJ/RJR24&lt;BR&gt;
      -&lt;BR&gt;
      -&lt;BR&gt;
      -&lt;BR&gt;
      -&lt;BR&gt;
      -&lt;BR&gt;
      -&lt;BR&gt;
      -&lt;BR&gt;&lt;/FONT&gt;
    &lt;/TD&gt;
  &lt;/TR&gt;
  &lt;TR&gt;
    &lt;TD COLSPAN=8&gt;&amp;nbsp;
    &lt;/TD&gt;
  &lt;/TR&gt;
  &lt;TR&gt;
    &lt;TD COLSPAN=8&gt;
      &lt;FONT SIZE=4 FACE=ARIAL&gt;&lt;B&gt;SINGLE TURN&lt;/B&gt;&lt;/FONT&gt;
    &lt;/TD&gt;
  &lt;/TR&gt;
  &lt;TR&gt;
    &lt;TD ALIGN=CENTER&gt;
      &lt;FONT SIZE=3 FACE=ARIAL&gt;&lt;B&gt;BOURN&lt;/B&gt;&lt;/FONT&gt;
    &lt;/TD&gt;
    &lt;TD ALIGN=CENTER&gt;
      &lt;FONT SIZE=3 FACE=ARIAL&gt;&lt;B&gt;BI&amp;nbsp;TECH&lt;/B&gt;&lt;/FONT&gt;
    &lt;/TD&gt;
    &lt;TD ALIGN=CENTER&gt;
      &lt;FONT SIZE=3 FACE=ARIAL&gt;&lt;B&gt;DALE-VISHAY&lt;/B&gt;&lt;/FONT&gt;
    &lt;/TD&gt;
    &lt;TD ALIGN=CENTER&gt;
      &lt;FONT SIZE=3 FACE=ARIAL&gt;&lt;B&gt;PHILIPS/MEPCO&lt;/B&gt;&lt;/FONT&gt;
    &lt;/TD&gt;
    &lt;TD ALIGN=CENTER&gt;
      &lt;FONT SIZE=3 FACE=ARIAL&gt;&lt;B&gt;MURATA&lt;/B&gt;&lt;/FONT&gt;
    &lt;/TD&gt;
    &lt;TD ALIGN=CENTER&gt;
      &lt;FONT SIZE=3 FACE=ARIAL&gt;&lt;B&gt;PANASONIC&lt;/B&gt;&lt;/FONT&gt;
    &lt;/TD&gt;
    &lt;TD ALIGN=CENTER&gt;
      &lt;FONT SIZE=3 FACE=ARIAL&gt;&lt;B&gt;SPECTROL&lt;/B&gt;&lt;/FONT&gt;
    &lt;/TD&gt;
    &lt;TD ALIGN=CENTER&gt;
      &lt;FONT SIZE=3 FACE=ARIAL&gt;&lt;B&gt;MILSPEC&lt;/B&gt;&lt;/FONT&gt;
    &lt;/TD&gt;
  &lt;/TR&gt;
  &lt;TR&gt;
    &lt;TD BGCOLOR="#cccccc" ALIGN=CENTER&gt;&lt;FONT FACE=ARIAL SIZE=3&gt;
      3323P&lt;BR&gt;
      3323S&lt;BR&gt;
      3323W&lt;BR&gt;
      3329H&lt;BR&gt;
      3329P&lt;BR&gt;
      3329W&lt;BR&gt;
      3339H&lt;BR&gt;
      3339P&lt;BR&gt;
      3339W&lt;BR&gt;
      3352E&lt;BR&gt;
      3352H&lt;BR&gt;
      3352K&lt;BR&gt;
      3352P&lt;BR&gt;
      3352T&lt;BR&gt;
      3352V&lt;BR&gt;
      3352W&lt;BR&gt;
      3362H&lt;BR&gt;
      3362M&lt;BR&gt;
      3362P&lt;BR&gt;
      3362R&lt;BR&gt;
      3362S&lt;BR&gt;
      3362U&lt;BR&gt;
      3362W&lt;BR&gt;
      3362X&lt;BR&gt;
      3386B&lt;BR&gt;
      3386C&lt;BR&gt;
      3386F&lt;BR&gt;
      3386H&lt;BR&gt;
      3386K&lt;BR&gt;
      3386M&lt;BR&gt;
      3386P&lt;BR&gt;
      3386S&lt;BR&gt;
      3386W&lt;BR&gt;
      3386X&lt;BR&gt;&lt;/FONT&gt;
    &lt;/TD&gt;
    &lt;TD BGCOLOR="#cccccc" ALIGN=CENTER&gt;&lt;FONT FACE=ARIAL SIZE=3&gt;
      25P&lt;BR&gt;
      25S&lt;BR&gt;
      25RX&lt;BR&gt;
      82P&lt;BR&gt;
      82M&lt;BR&gt;
      82PA&lt;BR&gt;
      -&lt;BR&gt;
      -&lt;BR&gt;
      -&lt;BR&gt;
      91E&lt;BR&gt;
      91X&lt;BR&gt;
      91T&lt;BR&gt;
      91B&lt;BR&gt;
      91A&lt;BR&gt;
      91V&lt;BR&gt;
      91W&lt;BR&gt;
      25W&lt;BR&gt;
      25V&lt;BR&gt;
      25P&lt;BR&gt;
      -&lt;BR&gt;
      25S&lt;BR&gt;
      25U&lt;BR&gt;
      25RX&lt;BR&gt;
      25X&lt;BR&gt;
      72XW&lt;BR&gt;
      72XL&lt;BR&gt;
      72PM&lt;BR&gt;
      72RX&lt;BR&gt;
      -&lt;BR&gt;
      72PX&lt;BR&gt;
      72P&lt;BR&gt;
      72RXW&lt;BR&gt;
      72RXL&lt;BR&gt;
      72X&lt;BR&gt;&lt;/FONT&gt;
    &lt;/TD&gt;
    &lt;TD BGCOLOR="#cccccc" ALIGN=CENTER&gt;&lt;FONT FACE=ARIAL SIZE=3&gt;
      -&lt;BR&gt;
      -&lt;BR&gt;
      -&lt;BR&gt;
      T7YB&lt;BR&gt;
      T7YA&lt;BR&gt;
      -&lt;BR&gt;
      -&lt;BR&gt;
      -&lt;BR&gt;
      -&lt;BR&gt;
      -&lt;BR&gt;
      -&lt;BR&gt;
      -&lt;BR&gt;
      -&lt;BR&gt;
      -&lt;BR&gt;
      -&lt;BR&gt;
      -&lt;BR&gt;
      -&lt;BR&gt;
      TXD&lt;BR&gt;
      TYA&lt;BR&gt;
      TYP&lt;BR&gt;
      -&lt;BR&gt;
      TYD&lt;BR&gt;
      TX&lt;BR&gt;
      -&lt;BR&gt;
      150SX&lt;BR&gt;
      100SX&lt;BR&gt;
      102T&lt;BR&gt;
      101S&lt;BR&gt;
      190T&lt;BR&gt;
      150TX&lt;BR&gt;
      101&lt;BR&gt;
      -&lt;BR&gt;
      -&lt;BR&gt;
      101SX&lt;BR&gt;&lt;/FONT&gt;
    &lt;/TD&gt;
    &lt;TD BGCOLOR="#cccccc" ALIGN=CENTER&gt;&lt;FONT FACE=ARIAL SIZE=3&gt;
      ET6P&lt;BR&gt;
      ET6S&lt;BR&gt;
      ET6X&lt;BR&gt;
      RJ-6W/8014EMW&lt;BR&gt;
      RJ-6P/8014EMP&lt;BR&gt;
      RJ-6X/8014EMX&lt;BR&gt;
      TM7W&lt;BR&gt;
      TM7P&lt;BR&gt;
      TM7X&lt;BR&gt;
      -&lt;BR&gt;
      8017SMS&lt;BR&gt;
      -&lt;BR&gt;
      8017SMB&lt;BR&gt;
      8017SMA&lt;BR&gt;
      -&lt;BR&gt;
      -&lt;BR&gt;
      CT-6W&lt;BR&gt;
      CT-6H&lt;BR&gt;
      CT-6P&lt;BR&gt;
      CT-6R&lt;BR&gt;
      -&lt;BR&gt;
      CT-6V&lt;BR&gt;
      CT-6X&lt;BR&gt;
      -&lt;BR&gt;
      -&lt;BR&gt;
      8038EKV&lt;BR&gt;
      -&lt;BR&gt;
      8038EKX&lt;BR&gt;
      -&lt;BR&gt;
      -&lt;BR&gt;
      8038EKP&lt;BR&gt;
      8038EKZ&lt;BR&gt;
      8038EKW&lt;BR&gt;
      -&lt;BR&gt;&lt;/FONT&gt;
    &lt;/TD&gt;
    &lt;TD BGCOLOR="#cccccc" ALIGN=CENTER&gt;&lt;FONT FACE=ARIAL SIZE=3&gt;
      -&lt;BR&gt;
      -&lt;BR&gt;
      -&lt;BR&gt;
      3321H&lt;BR&gt;
      3321P&lt;BR&gt;
      3321N&lt;BR&gt;
      1102H&lt;BR&gt;
      1102P&lt;BR&gt;
      1102T&lt;BR&gt;
      RVA0911V304A&lt;BR&gt;
      -&lt;BR&gt;
      RVA0911H413A&lt;BR&gt;
      RVG0707V100A&lt;BR&gt;
      RVA0607V(H)306A&lt;BR&gt;
      RVA1214H213A&lt;BR&gt;
      -&lt;BR&gt;
      -&lt;BR&gt;
      -&lt;BR&gt;
      -&lt;BR&gt;
      -&lt;BR&gt;
      -&lt;BR&gt;
      -&lt;BR&gt;
      -&lt;BR&gt;
      -&lt;BR&gt;
      3104B&lt;BR&gt;
      3104C&lt;BR&gt;
      3104F&lt;BR&gt;
      3104H&lt;BR&gt;
      -&lt;BR&gt;
      3104M&lt;BR&gt;
      3104P&lt;BR&gt;
      3104S&lt;BR&gt;
      3104W&lt;BR&gt;
      3104X&lt;BR&gt;&lt;/FONT&gt;
    &lt;/TD&gt;
    &lt;TD BGCOLOR="#cccccc" ALIGN=CENTER&gt;&lt;FONT FACE=ARIAL SIZE=3&gt;
      EVMQ0G&lt;BR&gt;
      EVMQIG&lt;BR&gt;
      EVMQ3G&lt;BR&gt;
      EVMS0G&lt;BR&gt;
      EVMQ0G&lt;BR&gt;
      EVMG0G&lt;BR&gt;
      -&lt;BR&gt;
      -&lt;BR&gt;
      -&lt;BR&gt;
      EVMK4GA00B&lt;BR&gt;
      EVM30GA00B&lt;BR&gt;
      EVMK0GA00B&lt;BR&gt;
      EVM38GA00B&lt;BR&gt;
      EVMB6&lt;BR&gt;
      EVLQ0&lt;BR&gt;
      -&lt;BR&gt;
      EVMMSG&lt;BR&gt;
      EVMMBG&lt;BR&gt;
      EVMMAG&lt;BR&gt;
      -&lt;BR&gt;
      -&lt;BR&gt;
      EVMMCS&lt;BR&gt;
      -&lt;BR&gt;
      -&lt;BR&gt;
      -&lt;BR&gt;
      -&lt;BR&gt;
      -&lt;BR&gt;
      EVMM1&lt;BR&gt;
      -&lt;BR&gt;
      -&lt;BR&gt;
      EVMM0&lt;BR&gt;
      -&lt;BR&gt;
      -&lt;BR&gt;
      EVMM3&lt;BR&gt;&lt;/FONT&gt;
    &lt;/TD&gt;
    &lt;TD BGCOLOR="#cccccc" ALIGN=CENTER&gt;&lt;FONT FACE=ARIAL SIZE=3&gt;
      -&lt;BR&gt;
      -&lt;BR&gt;
      -&lt;BR&gt;
      62-3-1&lt;BR&gt;
      62-1-2&lt;BR&gt;
      -&lt;BR&gt;
      -&lt;BR&gt;
      -&lt;BR&gt;
      -&lt;BR&gt;
      -&lt;BR&gt;
      -&lt;BR&gt;
      -&lt;BR&gt;
      -&lt;BR&gt;
      -&lt;BR&gt;
      -&lt;BR&gt;
      -&lt;BR&gt;
      67R&lt;BR&gt;
      -&lt;BR&gt;
      67P&lt;BR&gt;
      -&lt;BR&gt;
      -&lt;BR&gt;
      -&lt;BR&gt;
      -&lt;BR&gt;
      67X&lt;BR&gt;
      63V&lt;BR&gt;
      63S&lt;BR&gt;
      63M&lt;BR&gt;
      -&lt;BR&gt;
      -&lt;BR&gt;
      63H&lt;BR&gt;
      63P&lt;BR&gt;
      -&lt;BR&gt;
      -&lt;BR&gt;
      63X&lt;BR&gt;&lt;/FONT&gt;
    &lt;/TD&gt;
    &lt;TD BGCOLOR="#cccccc" ALIGN=CENTER&gt;&lt;FONT FACE=ARIAL SIZE=3&gt;
      -&lt;BR&gt;
      -&lt;BR&gt;
      -&lt;BR&gt;
      RJ/RJR50&lt;BR&gt;
      RJ/RJR50&lt;BR&gt;
      RJ/RJR50&lt;BR&gt;
      -&lt;BR&gt;
      -&lt;BR&gt;
      -&lt;BR&gt;
      -&lt;BR&gt;
      -&lt;BR&gt;
      -&lt;BR&gt;
      -&lt;BR&gt;
      -&lt;BR&gt;
      -&lt;BR&gt;
      -&lt;BR&gt;
      -&lt;BR&gt;
      -&lt;BR&gt;
      -&lt;BR&gt;
      -&lt;BR&gt;
      -&lt;BR&gt;
      -&lt;BR&gt;
      -&lt;BR&gt;
      -&lt;BR&gt;
      -&lt;BR&gt;
      -&lt;BR&gt;
      -&lt;BR&gt;
      -&lt;BR&gt;
      -&lt;BR&gt;
      -&lt;BR&gt;
      -&lt;BR&gt;
      -&lt;BR&gt;
      -&lt;BR&gt;
      -&lt;BR&gt;&lt;/FONT&gt;
    &lt;/TD&gt;
  &lt;/TR&gt;
&lt;/TABLE&gt;
&lt;P&gt;&amp;nbsp;&lt;P&gt;
&lt;TABLE BORDER=0 CELLSPACING=1 CELLPADDING=3&gt;
  &lt;TR&gt;
    &lt;TD COLSPAN=7&gt;
      &lt;FONT color="#0000FF" SIZE=4 FACE=ARIAL&gt;&lt;B&gt;SMD TRIM-POT CROSS REFERENCE&lt;/B&gt;&lt;/FONT&gt;
      &lt;P&gt;
      &lt;FONT SIZE=4 FACE=ARIAL&gt;&lt;B&gt;MULTI-TURN&lt;/B&gt;&lt;/FONT&gt;
    &lt;/TD&gt;
  &lt;/TR&gt;
  &lt;TR&gt;
    &lt;TD&gt;
      &lt;FONT SIZE=3 FACE=ARIAL&gt;&lt;B&gt;BOURNS&lt;/B&gt;&lt;/FONT&gt;
    &lt;/TD&gt;
    &lt;TD&gt;
      &lt;FONT SIZE=3 FACE=ARIAL&gt;&lt;B&gt;BI&amp;nbsp;TECH&lt;/B&gt;&lt;/FONT&gt;
    &lt;/TD&gt;
    &lt;TD&gt;
      &lt;FONT SIZE=3 FACE=ARIAL&gt;&lt;B&gt;DALE-VISHAY&lt;/B&gt;&lt;/FONT&gt;
    &lt;/TD&gt;
    &lt;TD&gt;
      &lt;FONT SIZE=3 FACE=ARIAL&gt;&lt;B&gt;PHILIPS/MEPCO&lt;/B&gt;&lt;/FONT&gt;
    &lt;/TD&gt;
    &lt;TD&gt;
      &lt;FONT SIZE=3 FACE=ARIAL&gt;&lt;B&gt;PANASONIC&lt;/B&gt;&lt;/FONT&gt;
    &lt;/TD&gt;
    &lt;TD&gt;
      &lt;FONT SIZE=3 FACE=ARIAL&gt;&lt;B&gt;TOCOS&lt;/B&gt;&lt;/FONT&gt;
    &lt;/TD&gt;
    &lt;TD&gt;
      &lt;FONT SIZE=3 FACE=ARIAL&gt;&lt;B&gt;AUX/KYOCERA&lt;/B&gt;&lt;/FONT&gt;
    &lt;/TD&gt;
  &lt;/TR&gt;
  &lt;TR&gt;
    &lt;TD BGCOLOR="#cccccc" ALIGN=CENTER&gt;&lt;FONT FACE=ARIAL SIZE=3&gt;
      3224G&lt;BR&gt;
      3224J&lt;BR&gt;
      3224W&lt;BR&gt;
      3269P&lt;BR&gt;
      3269W&lt;BR&gt;
      3269X&lt;BR&gt;&lt;/FONT&gt;
    &lt;/TD&gt;
    &lt;TD BGCOLOR="#cccccc" ALIGN=CENTER&gt;&lt;FONT FACE=ARIAL SIZE=3&gt;
      44G&lt;BR&gt;
      44J&lt;BR&gt;
      44W&lt;BR&gt;
      84P&lt;BR&gt;
      84W&lt;BR&gt;
      84X&lt;BR&gt;&lt;/FONT&gt;
    &lt;/TD&gt;
    &lt;TD BGCOLOR="#cccccc" ALIGN=CENTER&gt;&lt;FONT FACE=ARIAL SIZE=3&gt;
      -&lt;BR&gt;
      -&lt;BR&gt;
      -&lt;BR&gt;
      ST63Z&lt;BR&gt;
      ST63Y&lt;BR&gt;
      -&lt;BR&gt;&lt;/FONT&gt;
    &lt;/TD&gt;
    &lt;TD BGCOLOR="#cccccc" ALIGN=CENTER&gt;&lt;FONT FACE=ARIAL SIZE=3&gt;
      -&lt;BR&gt;
      -&lt;BR&gt;
      -&lt;BR&gt;
      ST5P&lt;BR&gt;
      ST5W&lt;BR&gt;
      ST5X&lt;BR&gt;&lt;/FONT&gt;
    &lt;/TD&gt;
    &lt;TD BGCOLOR="#cccccc" ALIGN=CENTER&gt;&lt;FONT FACE=ARIAL SIZE=3&gt;
      -&lt;BR&gt;
      -&lt;BR&gt;
      -&lt;BR&gt;
      -&lt;BR&gt;
      -&lt;BR&gt;
      -&lt;BR&gt;&lt;/FONT&gt;
    &lt;/TD&gt;
    &lt;TD BGCOLOR="#cccccc" ALIGN=CENTER&gt;&lt;FONT FACE=ARIAL SIZE=3&gt;
      -&lt;BR&gt;
      -&lt;BR&gt;
      -&lt;BR&gt;
      -&lt;BR&gt;
      -&lt;BR&gt;
      -&lt;BR&gt;&lt;/FONT&gt;
    &lt;/TD&gt;
    &lt;TD BGCOLOR="#cccccc" ALIGN=CENTER&gt;&lt;FONT FACE=ARIAL SIZE=3&gt;
      -&lt;BR&gt;
      -&lt;BR&gt;
      -&lt;BR&gt;
      -&lt;BR&gt;
      -&lt;BR&gt;
      -&lt;BR&gt;&lt;/FONT&gt;
    &lt;/TD&gt;
  &lt;/TR&gt;
  &lt;TR&gt;
    &lt;TD COLSPAN=7&gt;&amp;nbsp;
    &lt;/TD&gt;
  &lt;/TR&gt;
  &lt;TR&gt;
    &lt;TD COLSPAN=7&gt;
      &lt;FONT SIZE=4 FACE=ARIAL&gt;&lt;B&gt;SINGLE TURN&lt;/B&gt;&lt;/FONT&gt;
    &lt;/TD&gt;
  &lt;/TR&gt;
  &lt;TR&gt;
    &lt;TD&gt;
      &lt;FONT SIZE=3 FACE=ARIAL&gt;&lt;B&gt;BOURNS&lt;/B&gt;&lt;/FONT&gt;
    &lt;/TD&gt;
    &lt;TD&gt;
      &lt;FONT SIZE=3 FACE=ARIAL&gt;&lt;B&gt;BI&amp;nbsp;TECH&lt;/B&gt;&lt;/FONT&gt;
    &lt;/TD&gt;
    &lt;TD&gt;
      &lt;FONT SIZE=3 FACE=ARIAL&gt;&lt;B&gt;DALE-VISHAY&lt;/B&gt;&lt;/FONT&gt;
    &lt;/TD&gt;
    &lt;TD&gt;
      &lt;FONT SIZE=3 FACE=ARIAL&gt;&lt;B&gt;PHILIPS/MEPCO&lt;/B&gt;&lt;/FONT&gt;
    &lt;/TD&gt;
    &lt;TD&gt;
      &lt;FONT SIZE=3 FACE=ARIAL&gt;&lt;B&gt;PANASONIC&lt;/B&gt;&lt;/FONT&gt;
    &lt;/TD&gt;
    &lt;TD&gt;
      &lt;FONT SIZE=3 FACE=ARIAL&gt;&lt;B&gt;TOCOS&lt;/B&gt;&lt;/FONT&gt;
    &lt;/TD&gt;
    &lt;TD&gt;
      &lt;FONT SIZE=3 FACE=ARIAL&gt;&lt;B&gt;AUX/KYOCERA&lt;/B&gt;&lt;/FONT&gt;
    &lt;/TD&gt;
  &lt;/TR&gt;
  &lt;TR&gt;
    &lt;TD BGCOLOR="#cccccc" ALIGN=CENTER&gt;&lt;FONT FACE=ARIAL SIZE=3&gt;
      3314G&lt;BR&gt;
      3314J&lt;BR&gt;
      3364A/B&lt;BR&gt;
      3364C/D&lt;BR&gt;
      3364W/X&lt;BR&gt;
      3313G&lt;BR&gt;
      3313J&lt;BR&gt;&lt;/FONT&gt;
    &lt;/TD&gt;
    &lt;TD BGCOLOR="#cccccc" ALIGN=CENTER&gt;&lt;FONT FACE=ARIAL SIZE=3&gt;
      23B&lt;BR&gt;
      23A&lt;BR&gt;
      21X&lt;BR&gt;
      21W&lt;BR&gt;
      -&lt;BR&gt;
      22B&lt;BR&gt;
      22A&lt;BR&gt;&lt;/FONT&gt;
    &lt;/TD&gt;
    &lt;TD BGCOLOR="#cccccc" ALIGN=CENTER&gt;&lt;FONT FACE=ARIAL SIZE=3&gt;
      ST5YL/ST53YL&lt;BR&gt;
      ST5YJ/5T53YJ&lt;BR&gt;
      ST-23A&lt;BR&gt;
      ST-22B&lt;BR&gt;
      ST-22&lt;BR&gt;
      -&lt;BR&gt;
      -&lt;BR&gt;&lt;/FONT&gt;
    &lt;/TD&gt;
    &lt;TD BGCOLOR="#cccccc" ALIGN=CENTER&gt;&lt;FONT FACE=ARIAL SIZE=3&gt;
      ST-4B&lt;BR&gt;
      ST-4A&lt;BR&gt;
      -&lt;BR&gt;
      -&lt;BR&gt;
      -&lt;BR&gt;
      ST-3B&lt;BR&gt;
      ST-3A&lt;BR&gt;&lt;/FONT&gt;
    &lt;/TD&gt;
    &lt;TD BGCOLOR="#cccccc" ALIGN=CENTER&gt;&lt;FONT FACE=ARIAL SIZE=3&gt;
      -&lt;BR&gt;
      EVM-6YS&lt;BR&gt;
      EVM-1E&lt;BR&gt;
      EVM-1G&lt;BR&gt;
      EVM-1D&lt;BR&gt;
      -&lt;BR&gt;
      -&lt;BR&gt;&lt;/FONT&gt;
    &lt;/TD&gt;
    &lt;TD BGCOLOR="#cccccc" ALIGN=CENTER&gt;&lt;FONT FACE=ARIAL SIZE=3&gt;
      G4B&lt;BR&gt;
      G4A&lt;BR&gt;
      TR04-3S1&lt;BR&gt;
      TRG04-2S1&lt;BR&gt;
      -&lt;BR&gt;
      -&lt;BR&gt;
      -&lt;BR&gt;&lt;/FONT&gt;
    &lt;/TD&gt;
    &lt;TD BGCOLOR="#cccccc" ALIGN=CENTER&gt;&lt;FONT FACE=ARIAL SIZE=3&gt;
      -&lt;BR&gt;
      -&lt;BR&gt;
      DVR-43A&lt;BR&gt;
      CVR-42C&lt;BR&gt;
      CVR-42A/C&lt;BR&gt;
      -&lt;BR&gt;
      -&lt;BR&gt;&lt;/FONT&gt;
    &lt;/TD&gt;
  &lt;/TR&gt;
&lt;/TABLE&gt;
&lt;P&gt;
&lt;FONT SIZE=4 FACE=ARIAL&gt;&lt;B&gt;ALT =&amp;nbsp;ALTERNATE&lt;/B&gt;&lt;/FONT&gt;
&lt;P&gt;

&amp;nbsp;
&lt;P&gt;
&lt;/td&gt;
&lt;/tr&gt;
&lt;/table&gt;</description>
<packages>
<package name="C0603">
<description>&lt;b&gt;CAPACITOR&lt;/b&gt;</description>
<wire x1="-1.473" y1="0.983" x2="1.473" y2="0.983" width="0.0508" layer="39"/>
<wire x1="1.473" y1="0.983" x2="1.473" y2="-0.983" width="0.0508" layer="39"/>
<wire x1="1.473" y1="-0.983" x2="-1.473" y2="-0.983" width="0.0508" layer="39"/>
<wire x1="-1.473" y1="-0.983" x2="-1.473" y2="0.983" width="0.0508" layer="39"/>
<wire x1="-0.356" y1="0.432" x2="0.356" y2="0.432" width="0.1016" layer="51"/>
<wire x1="-0.356" y1="-0.419" x2="0.356" y2="-0.419" width="0.1016" layer="51"/>
<smd name="1" x="-0.85" y="0" dx="1.1" dy="1" layer="1"/>
<smd name="2" x="0.85" y="0" dx="1.1" dy="1" layer="1"/>
<text x="-0.635" y="0.635" size="1.27" layer="25">&gt;NAME</text>
<text x="-0.635" y="-1.905" size="1.27" layer="27">&gt;VALUE</text>
<rectangle x1="-0.8382" y1="-0.4699" x2="-0.3381" y2="0.4801" layer="51"/>
<rectangle x1="0.3302" y1="-0.4699" x2="0.8303" y2="0.4801" layer="51"/>
<rectangle x1="-0.1999" y1="-0.3" x2="0.1999" y2="0.3" layer="35"/>
</package>
<package name="C0805">
<description>&lt;b&gt;CAPACITOR&lt;/b&gt;&lt;p&gt;</description>
<wire x1="-1.973" y1="0.983" x2="1.973" y2="0.983" width="0.0508" layer="39"/>
<wire x1="1.973" y1="-0.983" x2="-1.973" y2="-0.983" width="0.0508" layer="39"/>
<wire x1="-1.973" y1="-0.983" x2="-1.973" y2="0.983" width="0.0508" layer="39"/>
<wire x1="-0.381" y1="0.66" x2="0.381" y2="0.66" width="0.1016" layer="51"/>
<wire x1="-0.356" y1="-0.66" x2="0.381" y2="-0.66" width="0.1016" layer="51"/>
<wire x1="1.973" y1="0.983" x2="1.973" y2="-0.983" width="0.0508" layer="39"/>
<smd name="1" x="-0.95" y="0" dx="1.3" dy="1.5" layer="1"/>
<smd name="2" x="0.95" y="0" dx="1.3" dy="1.5" layer="1"/>
<text x="-1.27" y="1.27" size="1.27" layer="25">&gt;NAME</text>
<text x="-1.27" y="-2.54" size="1.27" layer="27">&gt;VALUE</text>
<rectangle x1="-1.0922" y1="-0.7239" x2="-0.3421" y2="0.7262" layer="51"/>
<rectangle x1="0.3556" y1="-0.7239" x2="1.1057" y2="0.7262" layer="51"/>
<rectangle x1="-0.1001" y1="-0.4001" x2="0.1001" y2="0.4001" layer="35"/>
</package>
<package name="R0603">
<description>&lt;b&gt;RESISTOR&lt;/b&gt;</description>
<wire x1="-0.432" y1="-0.356" x2="0.432" y2="-0.356" width="0.1524" layer="51"/>
<wire x1="0.432" y1="0.356" x2="-0.432" y2="0.356" width="0.1524" layer="51"/>
<wire x1="-1.473" y1="0.983" x2="1.473" y2="0.983" width="0.0508" layer="39"/>
<wire x1="1.473" y1="0.983" x2="1.473" y2="-0.983" width="0.0508" layer="39"/>
<wire x1="1.473" y1="-0.983" x2="-1.473" y2="-0.983" width="0.0508" layer="39"/>
<wire x1="-1.473" y1="-0.983" x2="-1.473" y2="0.983" width="0.0508" layer="39"/>
<smd name="1" x="-0.85" y="0" dx="1" dy="1.1" layer="1"/>
<smd name="2" x="0.85" y="0" dx="1" dy="1.1" layer="1"/>
<text x="-0.635" y="0.635" size="1.27" layer="25">&gt;NAME</text>
<text x="-0.635" y="-1.905" size="1.27" layer="27">&gt;VALUE</text>
<rectangle x1="0.4318" y1="-0.4318" x2="0.8382" y2="0.4318" layer="51"/>
<rectangle x1="-0.8382" y1="-0.4318" x2="-0.4318" y2="0.4318" layer="51"/>
<rectangle x1="-0.1999" y1="-0.4001" x2="0.1999" y2="0.4001" layer="35"/>
</package>
</packages>
</library>
<library name="pinhead">
<description>&lt;b&gt;Pin Header Connectors&lt;/b&gt;&lt;p&gt;
&lt;author&gt;Created by librarian@cadsoft.de&lt;/author&gt;</description>
<packages>
<package name="1X05/90">
<description>&lt;b&gt;PIN HEADER&lt;/b&gt;</description>
<wire x1="-6.35" y1="-1.905" x2="-3.81" y2="-1.905" width="0.1524" layer="21"/>
<wire x1="-3.81" y1="-1.905" x2="-3.81" y2="0.635" width="0.1524" layer="21"/>
<wire x1="-3.81" y1="0.635" x2="-6.35" y2="0.635" width="0.1524" layer="21"/>
<wire x1="-6.35" y1="0.635" x2="-6.35" y2="-1.905" width="0.1524" layer="21"/>
<wire x1="-5.08" y1="6.985" x2="-5.08" y2="1.27" width="0.762" layer="21"/>
<wire x1="-3.81" y1="-1.905" x2="-1.27" y2="-1.905" width="0.1524" layer="21"/>
<wire x1="-1.27" y1="-1.905" x2="-1.27" y2="0.635" width="0.1524" layer="21"/>
<wire x1="-1.27" y1="0.635" x2="-3.81" y2="0.635" width="0.1524" layer="21"/>
<wire x1="-2.54" y1="6.985" x2="-2.54" y2="1.27" width="0.762" layer="21"/>
<wire x1="-1.27" y1="-1.905" x2="1.27" y2="-1.905" width="0.1524" layer="21"/>
<wire x1="1.27" y1="-1.905" x2="1.27" y2="0.635" width="0.1524" layer="21"/>
<wire x1="1.27" y1="0.635" x2="-1.27" y2="0.635" width="0.1524" layer="21"/>
<wire x1="0" y1="6.985" x2="0" y2="1.27" width="0.762" layer="21"/>
<wire x1="1.27" y1="-1.905" x2="3.81" y2="-1.905" width="0.1524" layer="21"/>
<wire x1="3.81" y1="-1.905" x2="3.81" y2="0.635" width="0.1524" layer="21"/>
<wire x1="3.81" y1="0.635" x2="1.27" y2="0.635" width="0.1524" layer="21"/>
<wire x1="2.54" y1="6.985" x2="2.54" y2="1.27" width="0.762" layer="21"/>
<wire x1="3.81" y1="-1.905" x2="6.35" y2="-1.905" width="0.1524" layer="21"/>
<wire x1="6.35" y1="-1.905" x2="6.35" y2="0.635" width="0.1524" layer="21"/>
<wire x1="6.35" y1="0.635" x2="3.81" y2="0.635" width="0.1524" layer="21"/>
<wire x1="5.08" y1="6.985" x2="5.08" y2="1.27" width="0.762" layer="21"/>
<pad name="1" x="-5.08" y="-3.81" drill="1.016" shape="long" rot="R90"/>
<pad name="2" x="-2.54" y="-3.81" drill="1.016" shape="long" rot="R90"/>
<pad name="3" x="0" y="-3.81" drill="1.016" shape="long" rot="R90"/>
<pad name="4" x="2.54" y="-3.81" drill="1.016" shape="long" rot="R90"/>
<pad name="5" x="5.08" y="-3.81" drill="1.016" shape="long" rot="R90"/>
<text x="-6.985" y="-3.81" size="1.27" layer="25" ratio="10" rot="R90">&gt;NAME</text>
<text x="8.255" y="-3.81" size="1.27" layer="27" rot="R90">&gt;VALUE</text>
<rectangle x1="-5.461" y1="0.635" x2="-4.699" y2="1.143" layer="21"/>
<rectangle x1="-2.921" y1="0.635" x2="-2.159" y2="1.143" layer="21"/>
<rectangle x1="-0.381" y1="0.635" x2="0.381" y2="1.143" layer="21"/>
<rectangle x1="2.159" y1="0.635" x2="2.921" y2="1.143" layer="21"/>
<rectangle x1="4.699" y1="0.635" x2="5.461" y2="1.143" layer="21"/>
<rectangle x1="-5.461" y1="-2.921" x2="-4.699" y2="-1.905" layer="21"/>
<rectangle x1="-2.921" y1="-2.921" x2="-2.159" y2="-1.905" layer="21"/>
<rectangle x1="-0.381" y1="-2.921" x2="0.381" y2="-1.905" layer="21"/>
<rectangle x1="2.159" y1="-2.921" x2="2.921" y2="-1.905" layer="21"/>
<rectangle x1="4.699" y1="-2.921" x2="5.461" y2="-1.905" layer="21"/>
</package>
</packages>
</library>
<library name="sparky-custom">
<description>Custom parts for Sparky racks</description>
<packages>
<package name="PANEL-HOLDER">
<pad name="P$1" x="3" y="-2.5" drill="1.2" diameter="2" shape="long"/>
<wire x1="4.2" y1="-1.9" x2="1.8" y2="-1.9" width="0" layer="46"/>
<wire x1="1.8" y1="-1.9" x2="1.8" y2="-3.1" width="0" layer="46"/>
<wire x1="1.8" y1="-3.1" x2="4.2" y2="-3.1" width="0" layer="46"/>
<wire x1="4.2" y1="-3.1" x2="4.2" y2="-1.9" width="0" layer="46"/>
<pad name="P$3" x="3" y="2.5" drill="1.2" diameter="2" shape="long"/>
<wire x1="4.2" y1="1.9" x2="1.8" y2="1.9" width="0" layer="46"/>
<wire x1="1.8" y1="1.9" x2="1.8" y2="3.1" width="0" layer="46"/>
<wire x1="1.8" y1="3.1" x2="4.2" y2="3.1" width="0" layer="46"/>
<wire x1="4.2" y1="3.1" x2="4.2" y2="1.9" width="0" layer="46"/>
<wire x1="0" y1="4.7625" x2="0" y2="-4.7625" width="0" layer="20"/>
<wire x1="0" y1="3" x2="0.5" y2="3" width="0.127" layer="21"/>
<wire x1="5.5" y1="3" x2="6" y2="3" width="0.127" layer="21"/>
<wire x1="6" y1="3" x2="6" y2="-3" width="0.127" layer="21"/>
<wire x1="0.5" y1="-3" x2="0" y2="-3" width="0.127" layer="21"/>
<wire x1="5.5" y1="-3" x2="6" y2="-3" width="0.127" layer="21"/>
<text x="1.27" y="0" size="1.27" layer="25" align="center-left">&gt;NAME</text>
</package>
</packages>
</library>
<library name="switch-ck">
<packages>
<package name="BD02AV">
<pad name="1" x="0" y="0" drill="0.8"/>
<pad name="4" x="2.54" y="0" drill="0.8"/>
<pad name="2" x="0" y="-2.54" drill="0.8"/>
<pad name="3" x="2.54" y="-2.54" drill="0.8"/>
<wire x1="-8.128" y1="2.286" x2="-2.159" y2="2.286" width="0.127" layer="21"/>
<wire x1="-2.159" y1="2.286" x2="-2.159" y2="1.27" width="0.127" layer="21"/>
<wire x1="-2.159" y1="1.27" x2="-2.159" y2="-3.81" width="0.127" layer="21"/>
<wire x1="-2.159" y1="-3.81" x2="-2.159" y2="-4.826" width="0.127" layer="21"/>
<wire x1="-2.159" y1="-4.826" x2="-8.128" y2="-4.826" width="0.127" layer="21"/>
<wire x1="-8.128" y1="-4.826" x2="-8.128" y2="2.286" width="0.127" layer="21"/>
<rectangle x1="-8.9408" y1="-0.7747" x2="-8.128" y2="0.7747" layer="51"/>
<rectangle x1="-8.9408" y1="-3.3147" x2="-8.128" y2="-1.7653" layer="51"/>
<rectangle x1="-2.159" y1="-0.635" x2="2.54" y2="0.635" layer="51"/>
<rectangle x1="-2.159" y1="-3.175" x2="2.54" y2="-1.905" layer="51"/>
<text x="-1.27" y="2.54" size="1.27" layer="25">&gt;NAME</text>
<text x="-1.27" y="-6.35" size="1.27" layer="27">&gt;VALUE</text>
<wire x1="-2.159" y1="1.27" x2="3.81" y2="1.27" width="0.127" layer="21"/>
<wire x1="3.81" y1="1.27" x2="3.81" y2="-3.81" width="0.127" layer="21"/>
<wire x1="3.81" y1="-3.81" x2="-2.159" y2="-3.81" width="0.127" layer="21"/>
</package>
</packages>
</library>
<library name="crystal">
<description>&lt;b&gt;Crystals and Crystal Resonators&lt;/b&gt;&lt;p&gt;
&lt;author&gt;Created by librarian@cadsoft.de&lt;/author&gt;</description>
<packages>
<package name="HC49U">
<description>&lt;b&gt;Crystal Filter&lt;/b&gt;&lt;p&gt;
Source: www.ilsiamerica.com .. C1 IXF Series.pdf</description>
<wire x1="-2.921" y1="-2.286" x2="2.921" y2="-2.286" width="0.4064" layer="21"/>
<wire x1="-2.921" y1="2.286" x2="2.921" y2="2.286" width="0.4064" layer="21"/>
<wire x1="-2.921" y1="-1.778" x2="2.921" y2="-1.778" width="0.1524" layer="21"/>
<wire x1="2.921" y1="1.778" x2="-2.921" y2="1.778" width="0.1524" layer="21"/>
<wire x1="2.921" y1="1.778" x2="2.921" y2="-1.778" width="0.1524" layer="21" curve="-180"/>
<wire x1="2.921" y1="2.286" x2="2.921" y2="-2.286" width="0.4064" layer="21" curve="-180"/>
<wire x1="-2.921" y1="2.286" x2="-2.921" y2="-2.286" width="0.4064" layer="21" curve="180"/>
<wire x1="-2.921" y1="1.778" x2="-2.921" y2="-1.778" width="0.1524" layer="21" curve="180"/>
<wire x1="-0.25" y1="1" x2="0.25" y2="1" width="0.1524" layer="51"/>
<wire x1="0.25" y1="1" x2="0.25" y2="-0.25" width="0.1524" layer="51"/>
<wire x1="0.25" y1="-0.25" x2="-0.25" y2="-0.25" width="0.1524" layer="51"/>
<wire x1="-0.25" y1="-0.25" x2="-0.25" y2="1" width="0.1524" layer="51"/>
<wire x1="0.75" y1="1" x2="0.75" y2="0.25" width="0.1524" layer="51"/>
<wire x1="0.75" y1="0.25" x2="0.75" y2="-0.5" width="0.1524" layer="51"/>
<wire x1="-0.75" y1="1" x2="-0.75" y2="0.25" width="0.1524" layer="51"/>
<wire x1="-0.75" y1="0.25" x2="-0.75" y2="-0.5" width="0.1524" layer="51"/>
<wire x1="0.75" y1="0.25" x2="1.5" y2="0.25" width="0.1524" layer="51"/>
<wire x1="-0.75" y1="0.25" x2="-1.5" y2="0.25" width="0.1524" layer="51"/>
<wire x1="-0.75" y1="-0.5" x2="0.75" y2="-0.5" width="0.1524" layer="51"/>
<wire x1="0" y1="-1.25" x2="0" y2="-0.625" width="0.1524" layer="51"/>
<pad name="1" x="-2.413" y="0" drill="0.7" diameter="1.2"/>
<pad name="2" x="-0.027" y="0" drill="0.7" diameter="1.2"/>
<pad name="3" x="2.413" y="0" drill="0.7" diameter="1.2"/>
<text x="-5.08" y="2.921" size="1.27" layer="25" ratio="10">&gt;NAME</text>
<text x="-5.08" y="-4.191" size="1.27" layer="27" ratio="10">&gt;VALUE</text>
</package>
</packages>
</library>
<library name="led-bivar">
<packages>
<package name="H-10*C">
<pad name="C" x="0" y="1.27" drill="0.8" shape="square"/>
<pad name="A" x="0" y="-1.27" drill="0.8"/>
<wire x1="-4.699" y1="2.159" x2="-4.699" y2="-2.159" width="0.127" layer="21"/>
<wire x1="-4.699" y1="2.159" x2="1.651" y2="2.159" width="0.127" layer="21"/>
<wire x1="-4.699" y1="-2.159" x2="1.651" y2="-2.159" width="0.127" layer="21"/>
<wire x1="1.651" y1="2.159" x2="1.651" y2="-2.159" width="0.127" layer="21"/>
<wire x1="-3.175" y1="-0.635" x2="-2.54" y2="-0.635" width="0.127" layer="21"/>
<wire x1="-2.54" y1="-0.635" x2="-1.905" y2="-0.635" width="0.127" layer="21"/>
<wire x1="-1.905" y1="-0.635" x2="-2.54" y2="0.635" width="0.127" layer="21"/>
<wire x1="-2.54" y1="0.635" x2="-3.175" y2="-0.635" width="0.127" layer="21"/>
<wire x1="-3.175" y1="0.635" x2="-2.54" y2="0.635" width="0.127" layer="21"/>
<wire x1="-2.54" y1="0.635" x2="-1.905" y2="0.635" width="0.127" layer="21"/>
<wire x1="-2.54" y1="1.27" x2="-2.54" y2="0.635" width="0.127" layer="21"/>
<wire x1="-2.54" y1="-0.635" x2="-2.54" y2="-1.27" width="0.127" layer="21"/>
<wire x1="-6.65" y1="1.016" x2="-4.699" y2="1.016" width="0.127" layer="51"/>
<wire x1="-6.65" y1="-1.016" x2="-4.699" y2="-1.016" width="0.127" layer="51"/>
<wire x1="-6.65" y1="1.016" x2="-6.65" y2="-1.016" width="0.127" layer="51" curve="180"/>
<text x="3.81" y="-2.54" size="1.27" layer="25" rot="R90">&gt;NAME</text>
<text x="6.35" y="-2.54" size="1.27" layer="27" rot="R90">&gt;VALUE</text>
</package>
</packages>
</library>
<library name="74xx-eu">
<description>&lt;b&gt;TTL Devices, 74xx Series with European Symbols&lt;/b&gt;&lt;p&gt;
Based on the following sources:
&lt;ul&gt;
&lt;li&gt;Texas Instruments &lt;i&gt;TTL Data Book&lt;/i&gt;&amp;nbsp;&amp;nbsp;&amp;nbsp;Volume 1, 1996.
&lt;li&gt;TTL Data Book, Volume 2 , 1993
&lt;li&gt;National Seminconductor Databook 1990, ALS/LS Logic
&lt;li&gt;ttl 74er digital data dictionary, ECA Electronic + Acustic GmbH, ISBN 3-88109-032-0
&lt;li&gt;http://icmaster.com/ViewCompare.asp
&lt;/ul&gt;
&lt;author&gt;Created by librarian@cadsoft.de&lt;/author&gt;</description>
<packages>
<package name="SO16">
<description>&lt;b&gt;Small Outline package&lt;/b&gt; 150 mil</description>
<wire x1="4.699" y1="1.9558" x2="-4.699" y2="1.9558" width="0.1524" layer="51"/>
<wire x1="4.699" y1="-1.9558" x2="5.08" y2="-1.5748" width="0.1524" layer="21" curve="90"/>
<wire x1="-5.08" y1="1.5748" x2="-4.699" y2="1.9558" width="0.1524" layer="21" curve="-90"/>
<wire x1="4.699" y1="1.9558" x2="5.08" y2="1.5748" width="0.1524" layer="21" curve="-90"/>
<wire x1="-5.08" y1="-1.5748" x2="-4.699" y2="-1.9558" width="0.1524" layer="21" curve="90"/>
<wire x1="-4.699" y1="-1.9558" x2="4.699" y2="-1.9558" width="0.1524" layer="51"/>
<wire x1="5.08" y1="-1.5748" x2="5.08" y2="1.5748" width="0.1524" layer="21"/>
<wire x1="-5.08" y1="1.5748" x2="-5.08" y2="0.508" width="0.1524" layer="21"/>
<wire x1="-5.08" y1="0.508" x2="-5.08" y2="-0.508" width="0.1524" layer="21"/>
<wire x1="-5.08" y1="-0.508" x2="-5.08" y2="-1.5748" width="0.1524" layer="21"/>
<wire x1="-5.08" y1="0.508" x2="-5.08" y2="-0.508" width="0.1524" layer="21" curve="-180"/>
<wire x1="-5.08" y1="-1.6002" x2="5.08" y2="-1.6002" width="0.0508" layer="21"/>
<smd name="1" x="-4.445" y="-3.0734" dx="0.6604" dy="2.032" layer="1"/>
<smd name="16" x="-4.445" y="3.0734" dx="0.6604" dy="2.032" layer="1"/>
<smd name="2" x="-3.175" y="-3.0734" dx="0.6604" dy="2.032" layer="1"/>
<smd name="3" x="-1.905" y="-3.0734" dx="0.6604" dy="2.032" layer="1"/>
<smd name="15" x="-3.175" y="3.0734" dx="0.6604" dy="2.032" layer="1"/>
<smd name="14" x="-1.905" y="3.0734" dx="0.6604" dy="2.032" layer="1"/>
<smd name="4" x="-0.635" y="-3.0734" dx="0.6604" dy="2.032" layer="1"/>
<smd name="13" x="-0.635" y="3.0734" dx="0.6604" dy="2.032" layer="1"/>
<smd name="5" x="0.635" y="-3.0734" dx="0.6604" dy="2.032" layer="1"/>
<smd name="12" x="0.635" y="3.0734" dx="0.6604" dy="2.032" layer="1"/>
<smd name="6" x="1.905" y="-3.0734" dx="0.6604" dy="2.032" layer="1"/>
<smd name="7" x="3.175" y="-3.0734" dx="0.6604" dy="2.032" layer="1"/>
<smd name="11" x="1.905" y="3.0734" dx="0.6604" dy="2.032" layer="1"/>
<smd name="10" x="3.175" y="3.0734" dx="0.6604" dy="2.032" layer="1"/>
<smd name="8" x="4.445" y="-3.0734" dx="0.6604" dy="2.032" layer="1"/>
<smd name="9" x="4.445" y="3.0734" dx="0.6604" dy="2.032" layer="1"/>
<text x="-3.81" y="-0.762" size="1.27" layer="27" ratio="10">&gt;VALUE</text>
<text x="-5.461" y="-1.905" size="1.27" layer="25" ratio="10" rot="R90">&gt;NAME</text>
<rectangle x1="-0.889" y1="1.9558" x2="-0.381" y2="3.0988" layer="51"/>
<rectangle x1="-4.699" y1="-3.0988" x2="-4.191" y2="-1.9558" layer="51"/>
<rectangle x1="-3.429" y1="-3.0988" x2="-2.921" y2="-1.9558" layer="51"/>
<rectangle x1="-2.159" y1="-3.0734" x2="-1.651" y2="-1.9304" layer="51"/>
<rectangle x1="-0.889" y1="-3.0988" x2="-0.381" y2="-1.9558" layer="51"/>
<rectangle x1="-2.159" y1="1.9558" x2="-1.651" y2="3.0988" layer="51"/>
<rectangle x1="-3.429" y1="1.9558" x2="-2.921" y2="3.0988" layer="51"/>
<rectangle x1="-4.699" y1="1.9558" x2="-4.191" y2="3.0988" layer="51"/>
<rectangle x1="0.381" y1="-3.0988" x2="0.889" y2="-1.9558" layer="51"/>
<rectangle x1="1.651" y1="-3.0988" x2="2.159" y2="-1.9558" layer="51"/>
<rectangle x1="2.921" y1="-3.0988" x2="3.429" y2="-1.9558" layer="51"/>
<rectangle x1="4.191" y1="-3.0988" x2="4.699" y2="-1.9558" layer="51"/>
<rectangle x1="0.381" y1="1.9558" x2="0.889" y2="3.0988" layer="51"/>
<rectangle x1="1.651" y1="1.9558" x2="2.159" y2="3.0988" layer="51"/>
<rectangle x1="2.921" y1="1.9558" x2="3.429" y2="3.0988" layer="51"/>
<rectangle x1="4.191" y1="1.9558" x2="4.699" y2="3.0988" layer="51"/>
</package>
</packages>
</library>
<library name="45xx">
<description>&lt;b&gt;CMOS Logic Devices, 4500 Series &lt;/b&gt;&lt;p&gt;
Based on the following sources:
&lt;ul&gt;
&lt;li&gt;http://www.ls3c.com.tw/product/1/COMOS.html
&lt;li&gt;http://www.ee.washington.edu
&lt;li&gt;http://www.onsemi.com
&lt;/ul&gt;
&lt;author&gt;Created by librarian@cadsoft.de&lt;/author&gt;</description>
<packages>
<package name="SO16">
<description>&lt;b&gt;Small Outline package&lt;/b&gt; 150 mil</description>
<wire x1="4.699" y1="1.9558" x2="-4.699" y2="1.9558" width="0.1524" layer="51"/>
<wire x1="4.699" y1="-1.9558" x2="5.08" y2="-1.5748" width="0.1524" layer="21" curve="90"/>
<wire x1="-5.08" y1="1.5748" x2="-4.699" y2="1.9558" width="0.1524" layer="21" curve="-90"/>
<wire x1="4.699" y1="1.9558" x2="5.08" y2="1.5748" width="0.1524" layer="21" curve="-90"/>
<wire x1="-5.08" y1="-1.5748" x2="-4.699" y2="-1.9558" width="0.1524" layer="21" curve="90"/>
<wire x1="-4.699" y1="-1.9558" x2="4.699" y2="-1.9558" width="0.1524" layer="51"/>
<wire x1="5.08" y1="-1.5748" x2="5.08" y2="1.5748" width="0.1524" layer="21"/>
<wire x1="-5.08" y1="1.5748" x2="-5.08" y2="0.508" width="0.1524" layer="21"/>
<wire x1="-5.08" y1="0.508" x2="-5.08" y2="-0.508" width="0.1524" layer="21"/>
<wire x1="-5.08" y1="-0.508" x2="-5.08" y2="-1.5748" width="0.1524" layer="21"/>
<wire x1="-5.08" y1="0.508" x2="-5.08" y2="-0.508" width="0.1524" layer="21" curve="-180"/>
<wire x1="-5.08" y1="-1.6002" x2="5.08" y2="-1.6002" width="0.0508" layer="21"/>
<smd name="1" x="-4.445" y="-3.0734" dx="0.6604" dy="2.032" layer="1"/>
<smd name="16" x="-4.445" y="3.0734" dx="0.6604" dy="2.032" layer="1"/>
<smd name="2" x="-3.175" y="-3.0734" dx="0.6604" dy="2.032" layer="1"/>
<smd name="3" x="-1.905" y="-3.0734" dx="0.6604" dy="2.032" layer="1"/>
<smd name="15" x="-3.175" y="3.0734" dx="0.6604" dy="2.032" layer="1"/>
<smd name="14" x="-1.905" y="3.0734" dx="0.6604" dy="2.032" layer="1"/>
<smd name="4" x="-0.635" y="-3.0734" dx="0.6604" dy="2.032" layer="1"/>
<smd name="13" x="-0.635" y="3.0734" dx="0.6604" dy="2.032" layer="1"/>
<smd name="5" x="0.635" y="-3.0734" dx="0.6604" dy="2.032" layer="1"/>
<smd name="12" x="0.635" y="3.0734" dx="0.6604" dy="2.032" layer="1"/>
<smd name="6" x="1.905" y="-3.0734" dx="0.6604" dy="2.032" layer="1"/>
<smd name="7" x="3.175" y="-3.0734" dx="0.6604" dy="2.032" layer="1"/>
<smd name="11" x="1.905" y="3.0734" dx="0.6604" dy="2.032" layer="1"/>
<smd name="10" x="3.175" y="3.0734" dx="0.6604" dy="2.032" layer="1"/>
<smd name="8" x="4.445" y="-3.0734" dx="0.6604" dy="2.032" layer="1"/>
<smd name="9" x="4.445" y="3.0734" dx="0.6604" dy="2.032" layer="1"/>
<text x="-3.81" y="-0.762" size="1.27" layer="27" ratio="10">&gt;VALUE</text>
<text x="-5.461" y="-1.905" size="1.27" layer="25" ratio="10" rot="R90">&gt;NAME</text>
<rectangle x1="-0.889" y1="1.9558" x2="-0.381" y2="3.0988" layer="51"/>
<rectangle x1="-4.699" y1="-3.0988" x2="-4.191" y2="-1.9558" layer="51"/>
<rectangle x1="-3.429" y1="-3.0988" x2="-2.921" y2="-1.9558" layer="51"/>
<rectangle x1="-2.159" y1="-3.0734" x2="-1.651" y2="-1.9304" layer="51"/>
<rectangle x1="-0.889" y1="-3.0988" x2="-0.381" y2="-1.9558" layer="51"/>
<rectangle x1="-2.159" y1="1.9558" x2="-1.651" y2="3.0988" layer="51"/>
<rectangle x1="-3.429" y1="1.9558" x2="-2.921" y2="3.0988" layer="51"/>
<rectangle x1="-4.699" y1="1.9558" x2="-4.191" y2="3.0988" layer="51"/>
<rectangle x1="0.381" y1="-3.0988" x2="0.889" y2="-1.9558" layer="51"/>
<rectangle x1="1.651" y1="-3.0988" x2="2.159" y2="-1.9558" layer="51"/>
<rectangle x1="2.921" y1="-3.0988" x2="3.429" y2="-1.9558" layer="51"/>
<rectangle x1="4.191" y1="-3.0988" x2="4.699" y2="-1.9558" layer="51"/>
<rectangle x1="0.381" y1="1.9558" x2="0.889" y2="3.0988" layer="51"/>
<rectangle x1="1.651" y1="1.9558" x2="2.159" y2="3.0988" layer="51"/>
<rectangle x1="2.921" y1="1.9558" x2="3.429" y2="3.0988" layer="51"/>
<rectangle x1="4.191" y1="1.9558" x2="4.699" y2="3.0988" layer="51"/>
</package>
</packages>
</library>
<library name="jumper">
<description>&lt;b&gt;Jumpers&lt;/b&gt;&lt;p&gt;
&lt;author&gt;Created by librarian@cadsoft.de&lt;/author&gt;</description>
<packages>
<package name="SJ_2">
<description>&lt;b&gt;Solder jumper&lt;/b&gt;</description>
<wire x1="2.159" y1="-1.016" x2="-2.159" y2="-1.016" width="0.1524" layer="21"/>
<wire x1="2.159" y1="1.016" x2="2.413" y2="0.762" width="0.1524" layer="21" curve="-90"/>
<wire x1="-2.413" y1="0.762" x2="-2.159" y2="1.016" width="0.1524" layer="21" curve="-90"/>
<wire x1="-2.413" y1="-0.762" x2="-2.159" y2="-1.016" width="0.1524" layer="21" curve="90"/>
<wire x1="2.159" y1="-1.016" x2="2.413" y2="-0.762" width="0.1524" layer="21" curve="90"/>
<wire x1="2.413" y1="-0.762" x2="2.413" y2="0.762" width="0.1524" layer="21"/>
<wire x1="-2.413" y1="-0.762" x2="-2.413" y2="0.762" width="0.1524" layer="21"/>
<wire x1="-2.159" y1="1.016" x2="2.159" y2="1.016" width="0.1524" layer="21"/>
<wire x1="1.778" y1="0" x2="2.286" y2="0" width="0.1524" layer="51"/>
<wire x1="-1.778" y1="0" x2="-2.286" y2="0" width="0.1524" layer="51"/>
<wire x1="0" y1="0.762" x2="0" y2="1.016" width="0.1524" layer="51"/>
<wire x1="0" y1="-1.016" x2="0" y2="-0.762" width="0.1524" layer="51"/>
<wire x1="1.016" y1="0.127" x2="1.016" y2="-0.127" width="1.27" layer="51" curve="-180" cap="flat"/>
<wire x1="-1.016" y1="-0.127" x2="-1.016" y2="0.127" width="1.27" layer="51" curve="-180" cap="flat"/>
<smd name="1" x="-1.524" y="0" dx="1.1684" dy="1.6002" layer="1"/>
<smd name="2" x="0" y="0" dx="1.1684" dy="1.6002" layer="1"/>
<smd name="3" x="1.524" y="0" dx="1.1684" dy="1.6002" layer="1"/>
<text x="-2.413" y="1.27" size="1.27" layer="25" ratio="10">&gt;NAME</text>
<text x="-0.1001" y="0" size="0.02" layer="27">&gt;VALUE</text>
<rectangle x1="-0.508" y1="-0.762" x2="0.508" y2="0.762" layer="51"/>
</package>
</packages>
</library>
<library name="74xx-little-us">
<description>&lt;b&gt;Single and Dual Gates Family, US symbols&lt;/b&gt;&lt;p&gt;
Little logic devices from Texas Instruments&lt;br&gt;
TinyLogic(R) from FAIRCHILD Semiconductor TM
&lt;p&gt;
&lt;author&gt;Created by evgeni@eniks.com&lt;/author&gt;&lt;br&gt;
&lt;author&gt;Extended by librarian@cadsoft.de&lt;/author&gt;</description>
<packages>
<package name="SOT23-5">
<description>&lt;b&gt;Small Outline Transistor&lt;/b&gt;&lt;p&gt;
SOT753 - Philips Semiconductors&lt;br&gt;
Source: http://www.semiconductors.philips.com/acrobat_download/datasheets/74HC_HCT1G66_3.pdf</description>
<wire x1="0" y1="-1.29" x2="0" y2="-1.3" width="0.01" layer="21"/>
<wire x1="1.42" y1="0.8" x2="1.42" y2="-0.8" width="0.127" layer="21"/>
<wire x1="1.42" y1="-0.8" x2="-1.42" y2="-0.8" width="0.127" layer="51"/>
<wire x1="-1.42" y1="-0.8" x2="-1.42" y2="0.8" width="0.127" layer="21"/>
<wire x1="-1.42" y1="0.8" x2="1.42" y2="0.8" width="0.127" layer="51"/>
<wire x1="-1.27" y1="0.65" x2="1.28" y2="0.65" width="0.075" layer="21"/>
<wire x1="1.28" y1="0.65" x2="1.28" y2="-0.66" width="0.075" layer="21"/>
<wire x1="1.28" y1="-0.66" x2="-1.27" y2="-0.66" width="0.075" layer="21"/>
<wire x1="-1.27" y1="-0.66" x2="-1.27" y2="0.65" width="0.075" layer="21"/>
<wire x1="-1.75" y1="2.25" x2="1.75" y2="2.25" width="0.254" layer="39"/>
<wire x1="1.75" y1="2.25" x2="1.75" y2="-2.25" width="0.254" layer="39"/>
<wire x1="1.75" y1="-2.25" x2="-1.75" y2="-2.25" width="0.254" layer="39"/>
<wire x1="-1.75" y1="-2.25" x2="-1.75" y2="2.25" width="0.254" layer="39"/>
<smd name="1" x="-0.95" y="-1.29" dx="0.69" dy="0.99" layer="1"/>
<smd name="2" x="0" y="-1.29" dx="0.69" dy="0.99" layer="1"/>
<smd name="3" x="0.95" y="-1.29" dx="0.69" dy="0.99" layer="1"/>
<smd name="4" x="0.95" y="1.3" dx="0.69" dy="0.99" layer="1"/>
<smd name="5" x="-0.95" y="1.3" dx="0.69" dy="0.99" layer="1"/>
<text x="-2.54" y="2.54" size="1.27" layer="25">&gt;NAME</text>
<text x="-2.54" y="-3.81" size="1.27" layer="27">&gt;VALUE</text>
<rectangle x1="-1.11" y1="0.68" x2="-0.78" y2="1.43" layer="51"/>
<rectangle x1="0.79" y1="0.67" x2="1.12" y2="1.42" layer="51"/>
<rectangle x1="-1.11" y1="-1.42" x2="-0.78" y2="-0.67" layer="51"/>
<rectangle x1="-0.16" y1="-1.42" x2="0.17" y2="-0.67" layer="51"/>
<rectangle x1="0.79" y1="-1.42" x2="1.12" y2="-0.67" layer="51"/>
</package>
</packages>
</library>
<library name="40xx">
<description>&lt;b&gt;CMOS Logic Devices, 4000 Series&lt;/b&gt;&lt;p&gt;
Based on the following sources:
&lt;ul&gt;
&lt;li&gt;Motorola &lt;i&gt;CMOS LOGIC DATA&lt;/i&gt;; book, 02/88, DL131 REV 1
&lt;li&gt;http://www.elexp.com
&lt;li&gt;http://www.intersil.com
&lt;li&gt;http://www.ls3c.com.tw/product/1/COMOS.html
&lt;/ul&gt;
&lt;author&gt;Created by librarian@cadsoft.de&lt;/author&gt;</description>
<packages>
<package name="SO16">
<description>&lt;b&gt;Small Outline package&lt;/b&gt; 150 mil</description>
<wire x1="4.699" y1="1.9558" x2="-4.699" y2="1.9558" width="0.1524" layer="21"/>
<wire x1="4.699" y1="-1.9558" x2="5.08" y2="-1.5748" width="0.1524" layer="21" curve="90"/>
<wire x1="-5.08" y1="1.5748" x2="-4.699" y2="1.9558" width="0.1524" layer="21" curve="-90"/>
<wire x1="4.699" y1="1.9558" x2="5.08" y2="1.5748" width="0.1524" layer="21" curve="-90"/>
<wire x1="-5.08" y1="-1.5748" x2="-4.699" y2="-1.9558" width="0.1524" layer="21" curve="90"/>
<wire x1="-4.699" y1="-1.9558" x2="4.699" y2="-1.9558" width="0.1524" layer="21"/>
<wire x1="5.08" y1="-1.5748" x2="5.08" y2="1.5748" width="0.1524" layer="21"/>
<wire x1="-5.08" y1="1.5748" x2="-5.08" y2="0.508" width="0.1524" layer="21"/>
<wire x1="-5.08" y1="0.508" x2="-5.08" y2="-0.508" width="0.1524" layer="21"/>
<wire x1="-5.08" y1="-0.508" x2="-5.08" y2="-1.5748" width="0.1524" layer="21"/>
<wire x1="-5.08" y1="0.508" x2="-5.08" y2="-0.508" width="0.1524" layer="21" curve="-180"/>
<wire x1="-5.08" y1="-1.6002" x2="5.08" y2="-1.6002" width="0.0508" layer="21"/>
<smd name="1" x="-4.445" y="-3.0734" dx="0.6604" dy="2.032" layer="1"/>
<smd name="16" x="-4.445" y="3.0734" dx="0.6604" dy="2.032" layer="1"/>
<smd name="2" x="-3.175" y="-3.0734" dx="0.6604" dy="2.032" layer="1"/>
<smd name="3" x="-1.905" y="-3.0734" dx="0.6604" dy="2.032" layer="1"/>
<smd name="15" x="-3.175" y="3.0734" dx="0.6604" dy="2.032" layer="1"/>
<smd name="14" x="-1.905" y="3.0734" dx="0.6604" dy="2.032" layer="1"/>
<smd name="4" x="-0.635" y="-3.0734" dx="0.6604" dy="2.032" layer="1"/>
<smd name="13" x="-0.635" y="3.0734" dx="0.6604" dy="2.032" layer="1"/>
<smd name="5" x="0.635" y="-3.0734" dx="0.6604" dy="2.032" layer="1"/>
<smd name="12" x="0.635" y="3.0734" dx="0.6604" dy="2.032" layer="1"/>
<smd name="6" x="1.905" y="-3.0734" dx="0.6604" dy="2.032" layer="1"/>
<smd name="7" x="3.175" y="-3.0734" dx="0.6604" dy="2.032" layer="1"/>
<smd name="11" x="1.905" y="3.0734" dx="0.6604" dy="2.032" layer="1"/>
<smd name="10" x="3.175" y="3.0734" dx="0.6604" dy="2.032" layer="1"/>
<smd name="8" x="4.445" y="-3.0734" dx="0.6604" dy="2.032" layer="1"/>
<smd name="9" x="4.445" y="3.0734" dx="0.6604" dy="2.032" layer="1"/>
<text x="-4.064" y="-0.635" size="1.27" layer="27" ratio="10">&gt;VALUE</text>
<text x="-5.461" y="-2.032" size="1.27" layer="25" ratio="10" rot="R90">&gt;NAME</text>
<rectangle x1="-0.889" y1="1.9558" x2="-0.381" y2="3.0988" layer="51"/>
<rectangle x1="-4.699" y1="-3.0988" x2="-4.191" y2="-1.9558" layer="51"/>
<rectangle x1="-3.429" y1="-3.0988" x2="-2.921" y2="-1.9558" layer="51"/>
<rectangle x1="-2.159" y1="-3.0734" x2="-1.651" y2="-1.9304" layer="51"/>
<rectangle x1="-0.889" y1="-3.0988" x2="-0.381" y2="-1.9558" layer="51"/>
<rectangle x1="-2.159" y1="1.9558" x2="-1.651" y2="3.0988" layer="51"/>
<rectangle x1="-3.429" y1="1.9558" x2="-2.921" y2="3.0988" layer="51"/>
<rectangle x1="-4.699" y1="1.9558" x2="-4.191" y2="3.0988" layer="51"/>
<rectangle x1="0.381" y1="-3.0988" x2="0.889" y2="-1.9558" layer="51"/>
<rectangle x1="1.651" y1="-3.0988" x2="2.159" y2="-1.9558" layer="51"/>
<rectangle x1="2.921" y1="-3.0988" x2="3.429" y2="-1.9558" layer="51"/>
<rectangle x1="4.191" y1="-3.0988" x2="4.699" y2="-1.9558" layer="51"/>
<rectangle x1="0.381" y1="1.9558" x2="0.889" y2="3.0988" layer="51"/>
<rectangle x1="1.651" y1="1.9558" x2="2.159" y2="3.0988" layer="51"/>
<rectangle x1="2.921" y1="1.9558" x2="3.429" y2="3.0988" layer="51"/>
<rectangle x1="4.191" y1="1.9558" x2="4.699" y2="3.0988" layer="51"/>
</package>
</packages>
</library>
<library name="resistor-bourns-missing">
<packages>
<package name="TC33X">
<description>&lt;b&gt;Trimm resistor&lt;/b&gt; MEGGIT</description>
<wire x1="-1.45" y1="1.75" x2="-1.45" y2="-1.65" width="0.254" layer="51"/>
<wire x1="-1.45" y1="-1.65" x2="1.45" y2="-1.65" width="0.254" layer="51"/>
<wire x1="1.45" y1="-1.65" x2="1.45" y2="1.75" width="0.254" layer="51"/>
<wire x1="1.45" y1="1.75" x2="-1.45" y2="1.75" width="0.254" layer="51"/>
<wire x1="-1.45" y1="-0.4" x2="-1.45" y2="1.75" width="0.254" layer="21"/>
<wire x1="-1.45" y1="1.75" x2="-1.05" y2="1.75" width="0.254" layer="21"/>
<wire x1="1.45" y1="-0.4" x2="1.45" y2="1.75" width="0.254" layer="21"/>
<wire x1="1.45" y1="1.75" x2="1.05" y2="1.75" width="0.254" layer="21"/>
<circle x="0" y="0" radius="1.15" width="0.1016" layer="51"/>
<smd name="2" x="0" y="1.3" dx="1.6" dy="1.5" layer="1"/>
<smd name="1" x="-1" y="-1.225" dx="1.2" dy="1.25" layer="1"/>
<smd name="3" x="1" y="-1.225" dx="1.2" dy="1.25" layer="1"/>
<text x="-1.905" y="-1.905" size="1.27" layer="25" rot="R90">&gt;NAME</text>
<text x="3.175" y="-1.905" size="1.27" layer="27" rot="R90">&gt;VALUE</text>
<rectangle x1="-1.15" y1="-0.15" x2="1.15" y2="0.15" layer="51"/>
<rectangle x1="-0.15" y1="-1.15" x2="0.15" y2="1.15" layer="51"/>
</package>
</packages>
</library>
</libraries>
<attributes>
</attributes>
<variantdefs>
</variantdefs>
<classes>
<class number="0" name="default" width="0" drill="0">
</class>
</classes>
<designrules name="default *">
<description language="de">&lt;b&gt;EAGLE Design Rules&lt;/b&gt;
&lt;p&gt;
Die Standard-Design-Rules sind so gewählt, dass sie für 
die meisten Anwendungen passen. Sollte ihre Platine 
besondere Anforderungen haben, treffen Sie die erforderlichen
Einstellungen hier und speichern die Design Rules unter 
einem neuen Namen ab.</description>
<description language="en">&lt;b&gt;EAGLE Design Rules&lt;/b&gt;
&lt;p&gt;
The default Design Rules have been set to cover
a wide range of applications. Your particular design
may have different requirements, so please make the
necessary adjustments and save your customized
design rules under a new name.</description>
<param name="layerSetup" value="(1*16)"/>
<param name="mtCopper" value="0.035mm 0.035mm 0.035mm 0.035mm 0.035mm 0.035mm 0.035mm 0.035mm 0.035mm 0.035mm 0.035mm 0.035mm 0.035mm 0.035mm 0.035mm 0.035mm"/>
<param name="mtIsolate" value="1.5mm 0.15mm 0.2mm 0.15mm 0.2mm 0.15mm 0.2mm 0.15mm 0.2mm 0.15mm 0.2mm 0.15mm 0.2mm 0.15mm 0.2mm"/>
<param name="mdWireWire" value="6mil"/>
<param name="mdWirePad" value="6mil"/>
<param name="mdWireVia" value="6mil"/>
<param name="mdPadPad" value="6mil"/>
<param name="mdPadVia" value="6mil"/>
<param name="mdViaVia" value="6mil"/>
<param name="mdSmdPad" value="0mil"/>
<param name="mdSmdVia" value="0mil"/>
<param name="mdSmdSmd" value="0mil"/>
<param name="mdViaViaSameLayer" value="8mil"/>
<param name="mnLayersViaInSmd" value="2"/>
<param name="mdCopperDimension" value="0.5mm"/>
<param name="mdDrill" value="8mil"/>
<param name="mdSmdStop" value="0mil"/>
<param name="msWidth" value="6mil"/>
<param name="msDrill" value="0.3mm"/>
<param name="msMicroVia" value="9.99mm"/>
<param name="msBlindViaRatio" value="0.5"/>
<param name="rvPadTop" value="0.25"/>
<param name="rvPadInner" value="0.25"/>
<param name="rvPadBottom" value="0.25"/>
<param name="rvViaOuter" value="0.25"/>
<param name="rvViaInner" value="0.25"/>
<param name="rvMicroViaOuter" value="0.25"/>
<param name="rvMicroViaInner" value="0.25"/>
<param name="rlMinPadTop" value="10mil"/>
<param name="rlMaxPadTop" value="20mil"/>
<param name="rlMinPadInner" value="10mil"/>
<param name="rlMaxPadInner" value="20mil"/>
<param name="rlMinPadBottom" value="10mil"/>
<param name="rlMaxPadBottom" value="20mil"/>
<param name="rlMinViaOuter" value="8mil"/>
<param name="rlMaxViaOuter" value="20mil"/>
<param name="rlMinViaInner" value="8mil"/>
<param name="rlMaxViaInner" value="20mil"/>
<param name="rlMinMicroViaOuter" value="4mil"/>
<param name="rlMaxMicroViaOuter" value="20mil"/>
<param name="rlMinMicroViaInner" value="4mil"/>
<param name="rlMaxMicroViaInner" value="20mil"/>
<param name="psTop" value="-1"/>
<param name="psBottom" value="-1"/>
<param name="psFirst" value="-1"/>
<param name="psElongationLong" value="100"/>
<param name="psElongationOffset" value="100"/>
<param name="mvStopFrame" value="1"/>
<param name="mvCreamFrame" value="0"/>
<param name="mlMinStopFrame" value="4mil"/>
<param name="mlMaxStopFrame" value="4mil"/>
<param name="mlMinCreamFrame" value="0mil"/>
<param name="mlMaxCreamFrame" value="0mil"/>
<param name="mlViaStopLimit" value="0.35mm"/>
<param name="srRoundness" value="0"/>
<param name="srMinRoundness" value="0mil"/>
<param name="srMaxRoundness" value="0mil"/>
<param name="slThermalIsolate" value="6mil"/>
<param name="slThermalsForVias" value="0"/>
<param name="dpMaxLengthDifference" value="10mm"/>
<param name="dpGapFactor" value="2.5"/>
<param name="checkGrid" value="0"/>
<param name="checkAngle" value="0"/>
<param name="checkFont" value="1"/>
<param name="checkRestrict" value="1"/>
<param name="useDiameter" value="13"/>
<param name="maxErrors" value="50"/>
</designrules>
<autorouter>
<pass name="Default">
<param name="RoutingGrid" value="50mil"/>
<param name="AutoGrid" value="1"/>
<param name="Efforts" value="0"/>
<param name="TopRouterVariant" value="1"/>
<param name="tpViaShape" value="round"/>
<param name="PrefDir.1" value="|"/>
<param name="PrefDir.2" value="0"/>
<param name="PrefDir.3" value="0"/>
<param name="PrefDir.4" value="0"/>
<param name="PrefDir.5" value="0"/>
<param name="PrefDir.6" value="0"/>
<param name="PrefDir.7" value="0"/>
<param name="PrefDir.8" value="0"/>
<param name="PrefDir.9" value="0"/>
<param name="PrefDir.10" value="0"/>
<param name="PrefDir.11" value="0"/>
<param name="PrefDir.12" value="0"/>
<param name="PrefDir.13" value="0"/>
<param name="PrefDir.14" value="0"/>
<param name="PrefDir.15" value="0"/>
<param name="PrefDir.16" value="-"/>
<param name="cfVia" value="8"/>
<param name="cfNonPref" value="5"/>
<param name="cfChangeDir" value="2"/>
<param name="cfOrthStep" value="2"/>
<param name="cfDiagStep" value="3"/>
<param name="cfExtdStep" value="0"/>
<param name="cfBonusStep" value="1"/>
<param name="cfMalusStep" value="1"/>
<param name="cfPadImpact" value="4"/>
<param name="cfSmdImpact" value="4"/>
<param name="cfBusImpact" value="0"/>
<param name="cfHugging" value="3"/>
<param name="cfAvoid" value="4"/>
<param name="cfPolygon" value="10"/>
<param name="cfBase.1" value="0"/>
<param name="cfBase.2" value="1"/>
<param name="cfBase.3" value="1"/>
<param name="cfBase.4" value="1"/>
<param name="cfBase.5" value="1"/>
<param name="cfBase.6" value="1"/>
<param name="cfBase.7" value="1"/>
<param name="cfBase.8" value="1"/>
<param name="cfBase.9" value="1"/>
<param name="cfBase.10" value="1"/>
<param name="cfBase.11" value="1"/>
<param name="cfBase.12" value="1"/>
<param name="cfBase.13" value="1"/>
<param name="cfBase.14" value="1"/>
<param name="cfBase.15" value="1"/>
<param name="cfBase.16" value="0"/>
<param name="mnVias" value="20"/>
<param name="mnSegments" value="9999"/>
<param name="mnExtdSteps" value="9999"/>
<param name="mnRipupLevel" value="10"/>
<param name="mnRipupSteps" value="100"/>
<param name="mnRipupTotal" value="100"/>
</pass>
<pass name="Follow-me" refer="Default" active="yes">
</pass>
<pass name="Busses" refer="Default" active="yes">
<param name="cfNonPref" value="4"/>
<param name="cfBusImpact" value="4"/>
<param name="cfHugging" value="0"/>
<param name="mnVias" value="0"/>
</pass>
<pass name="Route" refer="Default" active="yes">
</pass>
<pass name="Optimize1" refer="Default" active="yes">
<param name="cfVia" value="99"/>
<param name="cfExtdStep" value="10"/>
<param name="cfHugging" value="1"/>
<param name="mnExtdSteps" value="1"/>
<param name="mnRipupLevel" value="0"/>
</pass>
<pass name="Optimize2" refer="Optimize1" active="yes">
<param name="cfNonPref" value="0"/>
<param name="cfChangeDir" value="6"/>
<param name="cfExtdStep" value="0"/>
<param name="cfBonusStep" value="2"/>
<param name="cfMalusStep" value="2"/>
<param name="cfPadImpact" value="2"/>
<param name="cfSmdImpact" value="2"/>
<param name="cfHugging" value="0"/>
</pass>
<pass name="Optimize3" refer="Optimize2" active="yes">
<param name="cfChangeDir" value="8"/>
<param name="cfPadImpact" value="0"/>
<param name="cfSmdImpact" value="0"/>
</pass>
<pass name="Optimize4" refer="Optimize3" active="yes">
<param name="cfChangeDir" value="25"/>
</pass>
</autorouter>
<elements>
<element name="C1" library="rcl" package="C0805" value="10u" x="19.3675" y="26.3525" smashed="yes" rot="R90">
<attribute name="NAME" x="18.415" y="24.765" size="0.8128" layer="25" font="vector" ratio="19" rot="R90"/>
<attribute name="VALUE" x="21.9075" y="25.0825" size="1.27" layer="27" rot="R90"/>
</element>
<element name="JP1" library="pinhead" package="1X05/90" value="" x="26.67" y="20.32" smashed="yes" rot="R270">
<attribute name="NAME" x="24.765" y="26.9875" size="0.8128" layer="25" font="vector" ratio="19"/>
<attribute name="VALUE" x="22.86" y="12.065" size="1.27" layer="27"/>
</element>
<element name="H1" library="sparky-custom" package="PANEL-HOLDER" value="PANEL-HOLDER" x="0" y="35.56" smashed="yes">
<attribute name="NAME" x="2.54" y="35.56" size="0.8128" layer="25" font="vector" ratio="19" align="center-left"/>
</element>
<element name="H2" library="sparky-custom" package="PANEL-HOLDER" value="PANEL-HOLDER" x="0" y="5.08" smashed="yes">
<attribute name="NAME" x="1.905" y="5.08" size="0.8128" layer="25" font="vector" ratio="19" align="center-left"/>
</element>
<element name="SW1" library="switch-ck" package="BD02AV" value="" x="8.255" y="29.21" smashed="yes">
<attribute name="NAME" x="6.35" y="30.7975" size="0.8128" layer="25" font="vector" ratio="19"/>
<attribute name="VALUE" x="6.985" y="22.86" size="1.27" layer="27"/>
</element>
<element name="Q1" library="crystal" package="HC49U" value="" x="21.59" y="33.655" smashed="yes" rot="R270">
<attribute name="OC_FARNELL" value="unknown" x="21.59" y="33.655" size="0.8128" layer="27" font="vector" ratio="19" rot="R270" display="off"/>
<attribute name="MF" value="" x="21.59" y="33.655" size="0.8128" layer="27" font="vector" ratio="19" rot="R270" display="off"/>
<attribute name="OC_NEWARK" value="unknown" x="21.59" y="33.655" size="0.8128" layer="27" font="vector" ratio="19" rot="R270" display="off"/>
<attribute name="MPN" value="" x="21.59" y="33.655" size="0.8128" layer="27" font="vector" ratio="19" rot="R270" display="off"/>
<attribute name="NAME" x="18.669" y="30.7975" size="0.8128" layer="25" font="vector" ratio="19" rot="R90"/>
<attribute name="VALUE" x="17.399" y="38.735" size="1.27" layer="27" ratio="10" rot="R270"/>
</element>
<element name="R1" library="rcl" package="R0603" value="1M" x="13.97" y="34.925" smashed="yes" rot="R270">
<attribute name="NAME" x="13.335" y="36.5125" size="0.8128" layer="25" font="vector" ratio="19"/>
<attribute name="VALUE" x="12.065" y="35.56" size="1.27" layer="27" rot="R270"/>
</element>
<element name="C2" library="rcl" package="C0603" value="22p" x="16.8275" y="38.1" smashed="yes" rot="R180">
<attribute name="NAME" x="16.1925" y="38.735" size="0.8128" layer="25" font="vector" ratio="19"/>
<attribute name="VALUE" x="17.4625" y="40.005" size="1.27" layer="27" rot="R180"/>
</element>
<element name="C3" library="rcl" package="C0603" value="22p" x="14.2875" y="32.0675" smashed="yes" rot="R180">
<attribute name="NAME" x="14.9225" y="31.4325" size="0.8128" layer="25" font="vector" ratio="19" rot="R180"/>
<attribute name="VALUE" x="14.9225" y="33.9725" size="1.27" layer="27" rot="R180"/>
</element>
<element name="C4" library="rcl" package="C0603" value="100n" x="11.1125" y="38.1" smashed="yes">
<attribute name="NAME" x="10.4775" y="38.735" size="0.8128" layer="25" font="vector" ratio="19"/>
<attribute name="VALUE" x="10.4775" y="36.195" size="1.27" layer="27"/>
</element>
<element name="LED1" library="led-bivar" package="H-10*C" value="green" x="5.08" y="11.43" smashed="yes">
<attribute name="NAME" x="6.985" y="12.065" size="0.8128" layer="25" font="vector" ratio="19" rot="R270"/>
<attribute name="VALUE" x="11.43" y="8.89" size="1.27" layer="27" rot="R90"/>
</element>
<element name="IC3" library="74xx-eu" package="SO16" value="74HC153D" x="15.24" y="19.05" smashed="yes" rot="R270">
<attribute name="VALUE" x="14.478" y="22.86" size="1.27" layer="27" ratio="10" rot="R270"/>
<attribute name="NAME" x="13.0175" y="24.1935" size="0.8128" layer="25" font="vector" ratio="19" align="bottom-right"/>
</element>
<element name="R3" library="rcl" package="R0603" value="10k" x="14.2875" y="27.6225" smashed="yes" rot="R180">
<attribute name="NAME" x="14.9225" y="26.9875" size="0.8128" layer="25" font="vector" ratio="19" rot="R180"/>
<attribute name="VALUE" x="14.9225" y="29.5275" size="1.27" layer="27" rot="R180"/>
</element>
<element name="R4" library="rcl" package="R0603" value="10k" x="14.2875" y="29.845" smashed="yes" rot="R180">
<attribute name="NAME" x="14.9225" y="29.21" size="0.8128" layer="25" font="vector" ratio="19" rot="R180"/>
<attribute name="VALUE" x="14.9225" y="31.75" size="1.27" layer="27" rot="R180"/>
</element>
<element name="C6" library="rcl" package="C0603" value="100n" x="9.525" y="12.7" smashed="yes">
<attribute name="NAME" x="8.89" y="13.335" size="0.8128" layer="25" font="vector" ratio="19"/>
<attribute name="VALUE" x="8.89" y="10.795" size="1.27" layer="27"/>
</element>
<element name="IC2" library="45xx" package="SO16" value="4520D" x="6.0325" y="19.05" smashed="yes" rot="R90">
<attribute name="VALUE" x="6.7945" y="15.24" size="1.27" layer="27" ratio="10" rot="R90"/>
<attribute name="NAME" x="8.255" y="24.1935" size="0.8128" layer="25" font="vector" ratio="19"/>
</element>
<element name="SJ1" library="jumper" package="SJ_2" value="" x="22.5425" y="10.4775" smashed="yes" rot="R90">
<attribute name="NAME" x="21.2725" y="9.652" size="0.8128" layer="25" font="vector" ratio="19" rot="R90"/>
<attribute name="VALUE" x="22.5425" y="10.3774" size="0.02" layer="27" rot="R90"/>
</element>
<element name="R5" library="rcl" package="R0603" value="22" x="25.7175" y="11.43" smashed="yes" rot="R90">
<attribute name="NAME" x="25.0825" y="10.795" size="0.8128" layer="25" font="vector" ratio="19" rot="R90"/>
<attribute name="VALUE" x="27.6225" y="10.795" size="1.27" layer="27" rot="R90"/>
</element>
<element name="C7" library="rcl" package="C0603" value="100n" x="15.875" y="25.4" smashed="yes" rot="R180">
<attribute name="NAME" x="15.24" y="26.035" size="0.8128" layer="25" font="vector" ratio="19"/>
<attribute name="VALUE" x="16.51" y="27.305" size="1.27" layer="27" rot="R180"/>
</element>
<element name="IC1" library="74xx-little-us" package="SOT23-5" value="74HC1G04DBV" x="10.16" y="34.925" smashed="yes" rot="R270">
<attribute name="NAME" x="7.62" y="36.83" size="0.8128" layer="25" font="vector" ratio="19"/>
<attribute name="VALUE" x="6.35" y="37.465" size="1.27" layer="27" rot="R270"/>
</element>
<element name="IC4" library="40xx" package="SO16" value="4020D" x="15.5575" y="6.6675" smashed="yes">
<attribute name="VALUE" x="11.4935" y="6.0325" size="1.27" layer="27" ratio="10"/>
<attribute name="NAME" x="21.0185" y="7.747" size="0.8128" layer="25" font="vector" ratio="19" rot="R270"/>
</element>
<element name="C5" library="rcl" package="C0603" value="100n" x="9.2075" y="7.9375" smashed="yes" rot="R270">
<attribute name="NAME" x="8.5725" y="7.3025" size="0.8128" layer="25" font="vector" ratio="19" rot="R90"/>
<attribute name="VALUE" x="7.3025" y="8.5725" size="1.27" layer="27" rot="R270"/>
</element>
<element name="R2" library="rcl" package="R0603" value="470" x="9.2075" y="4.7625" smashed="yes" rot="R270">
<attribute name="NAME" x="8.5725" y="4.1275" size="0.8128" layer="25" font="vector" ratio="19" rot="R90"/>
<attribute name="VALUE" x="7.3025" y="5.3975" size="1.27" layer="27" rot="R270"/>
</element>
<element name="R6" library="resistor-bourns-missing" package="TC33X" value="X" x="16.8275" y="34.925" smashed="yes" rot="R180">
<attribute name="NAME" x="16.1925" y="31.75" size="0.8128" layer="25" font="vector" ratio="19"/>
<attribute name="VALUE" x="13.6525" y="36.83" size="1.27" layer="27" rot="R270"/>
</element>
</elements>
<signals>
<signal name="VSS">
<contactref element="C1" pad="2"/>
<contactref element="JP1" pad="5"/>
<contactref element="C2" pad="2"/>
<contactref element="C3" pad="2"/>
<contactref element="C4" pad="2"/>
<contactref element="R4" pad="1"/>
<contactref element="R3" pad="1"/>
<contactref element="IC3" pad="15"/>
<contactref element="IC3" pad="1"/>
<contactref element="IC2" pad="8"/>
<contactref element="C6" pad="2"/>
<contactref element="IC3" pad="8"/>
<contactref element="C7" pad="2"/>
<contactref element="IC2" pad="7"/>
<contactref element="IC1" pad="3"/>
<contactref element="IC2" pad="15"/>
<contactref element="IC4" pad="8"/>
<contactref element="IC4" pad="11"/>
<contactref element="C5" pad="2"/>
<via x="13.6525" y="14.605" extent="1-16" drill="0.3"/>
<polygon width="0.4064" layer="16" isolate="0.1524">
<vertex x="0" y="40.3225"/>
<vertex x="27.305" y="40.3225"/>
<vertex x="27.305" y="0.3175"/>
<vertex x="0" y="0.3175"/>
</polygon>
<via x="7.62" y="23.495" extent="1-16" drill="0.3"/>
<via x="20.0025" y="5.08" extent="1-16" drill="0.3"/>
<via x="10.16" y="6.985" extent="1-16" drill="0.3"/>
<wire x1="9.2075" y1="7.0875" x2="9.2075" y2="6.985" width="0.4064" layer="1"/>
<wire x1="9.2075" y1="6.985" x2="10.16" y2="6.985" width="0.4064" layer="1"/>
<wire x1="20.0025" y1="3.5941" x2="20.0025" y2="5.08" width="0.4064" layer="1"/>
<wire x1="9.1059" y1="23.495" x2="7.62" y2="23.495" width="0.4064" layer="1"/>
<wire x1="12.1666" y1="14.605" x2="13.6525" y2="14.605" width="0.4064" layer="1"/>
<via x="10.4775" y="11.7475" extent="1-16" drill="0.3"/>
<wire x1="10.375" y1="12.7" x2="10.4775" y2="12.7" width="0.4064" layer="1"/>
<wire x1="10.4775" y1="12.7" x2="10.4775" y2="11.7475" width="0.4064" layer="1"/>
<via x="4.7625" y="15.875" extent="1-16" drill="0.3"/>
<wire x1="2.9591" y1="15.875" x2="4.7625" y2="15.875" width="0.1524" layer="1"/>
<wire x1="9.1059" y1="22.225" x2="7.9375" y2="22.225" width="0.1524" layer="1"/>
<wire x1="7.9375" y1="22.225" x2="7.62" y2="22.5425" width="0.1524" layer="1"/>
<wire x1="7.62" y1="22.5425" x2="7.62" y2="23.495" width="0.1524" layer="1"/>
<wire x1="9.1059" y1="23.495" x2="12.1666" y2="23.495" width="0.1524" layer="1"/>
<via x="15.24" y="24.4475" extent="1-16" drill="0.3"/>
<wire x1="15.025" y1="25.4" x2="15.24" y2="25.4" width="0.4064" layer="1"/>
<wire x1="15.24" y1="25.4" x2="15.24" y2="24.4475" width="0.4064" layer="1"/>
<wire x1="18.3134" y1="22.225" x2="16.51" y2="22.225" width="0.1524" layer="1"/>
<wire x1="16.51" y1="22.225" x2="15.24" y2="23.495" width="0.1524" layer="1"/>
<wire x1="15.24" y1="23.495" x2="15.24" y2="24.4475" width="0.1524" layer="1"/>
<via x="16.1925" y="29.845" extent="1-16" drill="0.3"/>
<via x="16.1925" y="27.6225" extent="1-16" drill="0.3"/>
<wire x1="15.1375" y1="29.845" x2="16.1925" y2="29.845" width="0.1524" layer="1"/>
<wire x1="15.1375" y1="27.6225" x2="16.1925" y2="27.6225" width="0.1524" layer="1"/>
<via x="12.065" y="37.1475" extent="1-16" drill="0.3"/>
<via x="8.89" y="33.02" extent="1-16" drill="0.3"/>
<via x="17.4625" y="7.9375" extent="1-16" drill="0.3"/>
<wire x1="17.4625" y1="9.7409" x2="17.4625" y2="7.9375" width="0.1524" layer="1"/>
<contactref element="LED1" pad="C"/>
<via x="12.3825" y="32.0675" extent="1-16" drill="0.3"/>
<via x="14.9225" y="38.1" extent="1-16" drill="0.3"/>
<wire x1="15.9775" y1="38.1" x2="14.9225" y2="38.1" width="0.1524" layer="1"/>
<wire x1="13.4375" y1="32.0675" x2="12.3825" y2="32.0675" width="0.1524" layer="1"/>
<wire x1="11.9625" y1="38.1" x2="12.065" y2="38.1" width="0.4064" layer="1"/>
<wire x1="12.065" y1="38.1" x2="12.065" y2="37.1475" width="0.4064" layer="1"/>
<wire x1="8.89" y1="33.02" x2="8.89" y2="33.955" width="0.4064" layer="1"/>
<wire x1="8.89" y1="33.955" x2="8.87" y2="33.975" width="0.4064" layer="1"/>
<via x="20.6375" y="27.305" extent="1-16" drill="0.3"/>
<via x="18.0975" y="27.305" extent="1-16" drill="0.3"/>
<wire x1="19.3675" y1="27.3025" x2="19.3675" y2="27.305" width="0.6096" layer="1"/>
<wire x1="19.3675" y1="27.305" x2="18.0975" y2="27.305" width="0.6096" layer="1"/>
<wire x1="20.6375" y1="27.305" x2="19.3675" y2="27.305" width="0.6096" layer="1"/>
</signal>
<signal name="VDD">
<contactref element="C1" pad="1"/>
<contactref element="JP1" pad="1"/>
<contactref element="C4" pad="1"/>
<contactref element="SW1" pad="2"/>
<contactref element="SW1" pad="1"/>
<contactref element="IC2" pad="16"/>
<contactref element="C6" pad="1"/>
<contactref element="IC3" pad="16"/>
<contactref element="C7" pad="1"/>
<contactref element="IC2" pad="2"/>
<contactref element="IC1" pad="5"/>
<contactref element="IC2" pad="10"/>
<contactref element="IC4" pad="16"/>
<contactref element="C5" pad="1"/>
<wire x1="9.2075" y1="8.7875" x2="9.2075" y2="8.89" width="0.4064" layer="1"/>
<wire x1="9.2075" y1="8.89" x2="10.16" y2="8.89" width="0.4064" layer="1"/>
<wire x1="10.16" y1="8.89" x2="10.4775" y2="9.2075" width="0.4064" layer="1"/>
<wire x1="10.4775" y1="9.2075" x2="11.1125" y2="9.2075" width="0.4064" layer="1"/>
<wire x1="11.1125" y1="9.2075" x2="11.1125" y2="9.7409" width="0.4064" layer="1"/>
<wire x1="6.0325" y1="24.13" x2="6.0325" y2="22.225" width="0.4064" layer="1"/>
<wire x1="6.0325" y1="22.225" x2="6.0325" y2="15.875" width="0.4064" layer="1"/>
<wire x1="6.0325" y1="15.875" x2="6.0325" y2="14.605" width="0.4064" layer="1"/>
<wire x1="8.675" y1="12.7" x2="8.5725" y2="12.7" width="0.4064" layer="1"/>
<wire x1="8.5725" y1="12.7" x2="7.9375" y2="12.7" width="0.4064" layer="1"/>
<wire x1="7.9375" y1="12.7" x2="6.0325" y2="14.605" width="0.4064" layer="1"/>
<wire x1="6.0325" y1="14.605" x2="2.9591" y2="14.605" width="0.4064" layer="1"/>
<wire x1="9.1059" y1="15.875" x2="6.0325" y2="15.875" width="0.1524" layer="1"/>
<wire x1="8.5725" y1="12.5975" x2="8.675" y2="12.7" width="0.4064" layer="1"/>
<wire x1="2.9591" y1="22.225" x2="6.0325" y2="22.225" width="0.1524" layer="1"/>
<wire x1="8.255" y1="31.4325" x2="8.255" y2="29.21" width="0.4064" layer="1"/>
<wire x1="8.255" y1="29.21" x2="8.255" y2="26.67" width="0.4064" layer="1"/>
<wire x1="8.255" y1="26.67" x2="8.255" y2="25.7175" width="0.4064" layer="1"/>
<wire x1="8.255" y1="25.7175" x2="7.62" y2="25.0825" width="0.4064" layer="1"/>
<wire x1="7.62" y1="25.0825" x2="6.985" y2="25.0825" width="0.4064" layer="1"/>
<wire x1="6.985" y1="25.0825" x2="6.0325" y2="24.13" width="0.4064" layer="1"/>
<wire x1="8.5725" y1="12.5975" x2="8.5725" y2="12.7" width="0.4064" layer="1"/>
<wire x1="8.5725" y1="12.5975" x2="8.5725" y2="11.43" width="0.4064" layer="1"/>
<wire x1="8.5725" y1="11.43" x2="9.2075" y2="10.795" width="0.4064" layer="1"/>
<wire x1="9.2075" y1="10.795" x2="9.2075" y2="8.7875" width="0.4064" layer="1"/>
<wire x1="8.255" y1="31.4325" x2="7.3025" y2="32.385" width="0.4064" layer="1"/>
<wire x1="7.3025" y1="32.385" x2="7.3025" y2="37.1475" width="0.4064" layer="1"/>
<wire x1="7.3025" y1="37.1475" x2="8.255" y2="38.1" width="0.4064" layer="1"/>
<wire x1="8.255" y1="38.1" x2="10.2625" y2="38.1" width="0.4064" layer="1"/>
<wire x1="11.46" y1="35.875" x2="10.7975" y2="35.875" width="0.4064" layer="1"/>
<wire x1="10.7975" y1="35.875" x2="10.16" y2="36.5125" width="0.4064" layer="1"/>
<wire x1="10.16" y1="36.5125" x2="10.16" y2="37.9975" width="0.4064" layer="1"/>
<wire x1="10.16" y1="37.9975" x2="10.2625" y2="38.1" width="0.4064" layer="1"/>
<wire x1="24.765" y1="28.8925" x2="24.765" y2="37.7825" width="0.4064" layer="1"/>
<wire x1="24.765" y1="37.7825" x2="23.1775" y2="39.37" width="0.4064" layer="1"/>
<wire x1="23.1775" y1="39.37" x2="10.795" y2="39.37" width="0.4064" layer="1"/>
<wire x1="10.795" y1="39.37" x2="10.16" y2="38.735" width="0.4064" layer="1"/>
<wire x1="10.16" y1="38.735" x2="10.16" y2="38.2025" width="0.4064" layer="1"/>
<wire x1="10.16" y1="38.2025" x2="10.2625" y2="38.1" width="0.4064" layer="1"/>
<wire x1="19.365" y1="25.4" x2="19.3675" y2="25.4025" width="0.4064" layer="1"/>
<wire x1="22.86" y1="25.4" x2="20.0025" y2="25.4" width="0.6096" layer="1"/>
<wire x1="20.0025" y1="25.4" x2="19.37" y2="25.4" width="0.6096" layer="1"/>
<wire x1="19.37" y1="25.4" x2="19.3675" y2="25.4025" width="0.6096" layer="1"/>
<wire x1="24.765" y1="28.8925" x2="23.1775" y2="27.305" width="0.4064" layer="1"/>
<wire x1="16.725" y1="25.4" x2="19.3675" y2="25.4" width="0.4064" layer="1"/>
<wire x1="19.3675" y1="25.4" x2="19.3675" y2="25.4025" width="0.4064" layer="1"/>
<wire x1="23.1775" y1="27.305" x2="21.9075" y2="27.305" width="0.4064" layer="1"/>
<wire x1="21.9075" y1="27.305" x2="20.0025" y2="25.4" width="0.4064" layer="1"/>
<wire x1="18.3134" y1="23.495" x2="17.145" y2="23.495" width="0.4064" layer="1"/>
<wire x1="17.145" y1="23.495" x2="16.8275" y2="23.8125" width="0.4064" layer="1"/>
<wire x1="16.8275" y1="23.8125" x2="16.8275" y2="25.2975" width="0.4064" layer="1"/>
<wire x1="16.8275" y1="25.2975" x2="16.725" y2="25.4" width="0.4064" layer="1"/>
</signal>
<signal name="GND">
<contactref element="JP1" pad="3"/>
</signal>
<signal name="OUT">
<contactref element="SJ1" pad="2"/>
<contactref element="R5" pad="1"/>
<contactref element="IC2" pad="9"/>
<wire x1="24.4475" y1="10.4775" x2="25.615" y2="10.4775" width="0.1524" layer="1"/>
<wire x1="25.615" y1="10.4775" x2="25.7175" y2="10.58" width="0.1524" layer="1"/>
<wire x1="22.5425" y1="10.4775" x2="24.4475" y2="10.4775" width="0.1524" layer="1"/>
<wire x1="24.4475" y1="10.4775" x2="24.4475" y2="5.3975" width="0.1524" layer="1"/>
<wire x1="24.4475" y1="5.3975" x2="20.955" y2="1.905" width="0.1524" layer="1"/>
<wire x1="20.955" y1="1.905" x2="7.9375" y2="1.905" width="0.1524" layer="1"/>
<wire x1="7.9375" y1="1.905" x2="6.6675" y2="3.175" width="0.1524" layer="1"/>
<wire x1="6.6675" y1="3.175" x2="6.6675" y2="8.255" width="0.1524" layer="1"/>
<wire x1="6.6675" y1="8.255" x2="6.0325" y2="8.89" width="0.1524" layer="1"/>
<wire x1="6.0325" y1="8.89" x2="1.905" y2="8.89" width="0.1524" layer="1"/>
<wire x1="1.905" y1="8.89" x2="0.635" y2="10.16" width="0.1524" layer="1"/>
<wire x1="0.635" y1="10.16" x2="0.635" y2="22.86" width="0.1524" layer="1"/>
<wire x1="0.635" y1="22.86" x2="1.27" y2="23.495" width="0.1524" layer="1"/>
<wire x1="1.27" y1="23.495" x2="2.9591" y2="23.495" width="0.1524" layer="1"/>
</signal>
<signal name="N$2">
<contactref element="Q1" pad="1"/>
<contactref element="R1" pad="1"/>
<contactref element="C2" pad="1"/>
<contactref element="IC1" pad="2"/>
<contactref element="R6" pad="1"/>
<wire x1="17.8725" y1="36.195" x2="17.8275" y2="36.15" width="0.1524" layer="1"/>
<wire x1="17.6775" y1="38.1" x2="17.78" y2="38.1" width="0.1524" layer="1"/>
<wire x1="17.78" y1="38.1" x2="17.78" y2="37.1475" width="0.1524" layer="1"/>
<wire x1="17.78" y1="37.1475" x2="17.78" y2="36.1975" width="0.1524" layer="1"/>
<wire x1="17.78" y1="36.1975" x2="17.8275" y2="36.15" width="0.1524" layer="1"/>
<wire x1="17.8275" y1="36.15" x2="17.825" y2="36.15" width="0.1524" layer="1"/>
<wire x1="17.825" y1="36.15" x2="17.78" y2="36.195" width="0.1524" layer="1"/>
<wire x1="17.78" y1="36.195" x2="17.78" y2="36.1975" width="0.1524" layer="1"/>
<wire x1="17.78" y1="37.1475" x2="14.605" y2="37.1475" width="0.1524" layer="1"/>
<wire x1="8.87" y1="34.925" x2="12.3825" y2="34.925" width="0.1524" layer="1"/>
<wire x1="12.3825" y1="34.925" x2="13.0175" y2="35.56" width="0.1524" layer="1"/>
<wire x1="13.0175" y1="35.56" x2="13.755" y2="35.56" width="0.1524" layer="1"/>
<wire x1="13.755" y1="35.56" x2="13.97" y2="35.775" width="0.1524" layer="1"/>
<wire x1="14.605" y1="37.1475" x2="13.97" y2="36.5125" width="0.1524" layer="1"/>
<wire x1="13.97" y1="36.5125" x2="13.97" y2="35.775" width="0.1524" layer="1"/>
<wire x1="21.59" y1="36.068" x2="17.9095" y2="36.068" width="0.1524" layer="1"/>
<wire x1="17.9095" y1="36.068" x2="17.8275" y2="36.15" width="0.1524" layer="1"/>
</signal>
<signal name="N$7">
<contactref element="IC3" pad="14"/>
<contactref element="SW1" pad="3"/>
<contactref element="R3" pad="2"/>
<wire x1="18.3134" y1="20.955" x2="15.875" y2="20.955" width="0.1524" layer="1"/>
<wire x1="15.875" y1="20.955" x2="13.6525" y2="23.1775" width="0.1524" layer="1"/>
<wire x1="13.6525" y1="23.1775" x2="13.6525" y2="24.13" width="0.1524" layer="1"/>
<wire x1="13.6525" y1="24.13" x2="12.3825" y2="25.4" width="0.1524" layer="1"/>
<wire x1="12.3825" y1="25.4" x2="12.3825" y2="26.67" width="0.1524" layer="1"/>
<wire x1="12.3825" y1="26.67" x2="10.795" y2="26.67" width="0.1524" layer="1"/>
<wire x1="13.4375" y1="27.6225" x2="13.335" y2="27.6225" width="0.1524" layer="1"/>
<wire x1="13.335" y1="27.6225" x2="12.3825" y2="26.67" width="0.1524" layer="1"/>
</signal>
<signal name="N$8">
<contactref element="IC3" pad="2"/>
<contactref element="SW1" pad="4"/>
<contactref element="R4" pad="2"/>
<wire x1="13.4375" y1="29.845" x2="11.43" y2="29.845" width="0.1524" layer="1"/>
<wire x1="11.43" y1="29.845" x2="10.795" y2="29.21" width="0.1524" layer="1"/>
<wire x1="9.525" y1="25.0825" x2="9.525" y2="27.94" width="0.1524" layer="1"/>
<wire x1="9.525" y1="27.94" x2="10.795" y2="29.21" width="0.1524" layer="1"/>
<wire x1="12.1666" y1="22.225" x2="10.95375" y2="22.225" width="0.1524" layer="1"/>
<wire x1="10.95375" y1="22.225" x2="10.31875" y2="21.59" width="0.1524" layer="1"/>
<wire x1="10.31875" y1="21.59" x2="7.3025" y2="21.59" width="0.1524" layer="1"/>
<wire x1="7.3025" y1="21.59" x2="6.6675" y2="22.225" width="0.1524" layer="1"/>
<wire x1="6.6675" y1="22.225" x2="6.6675" y2="23.8125" width="0.1524" layer="1"/>
<wire x1="6.6675" y1="23.8125" x2="7.3025" y2="24.4475" width="0.1524" layer="1"/>
<wire x1="7.3025" y1="24.4475" x2="8.89" y2="24.4475" width="0.1524" layer="1"/>
<wire x1="8.89" y1="24.4475" x2="9.525" y2="25.0825" width="0.1524" layer="1"/>
</signal>
<signal name="N$9">
<contactref element="IC3" pad="6"/>
<contactref element="IC2" pad="3"/>
<contactref element="IC3" pad="11"/>
<wire x1="18.3134" y1="17.145" x2="12.1666" y2="17.145" width="0.1524" layer="1"/>
<wire x1="12.1666" y1="17.145" x2="9.1059" y2="17.145" width="0.1524" layer="1"/>
</signal>
<signal name="N$11">
<contactref element="IC3" pad="4"/>
<contactref element="IC2" pad="5"/>
<contactref element="IC3" pad="13"/>
<wire x1="12.1666" y1="19.685" x2="9.1059" y2="19.685" width="0.1524" layer="1"/>
<wire x1="18.3134" y1="19.685" x2="12.1666" y2="19.685" width="0.1524" layer="1"/>
</signal>
<signal name="N$12">
<contactref element="IC3" pad="3"/>
<contactref element="IC2" pad="6"/>
<wire x1="12.1666" y1="20.955" x2="9.1059" y2="20.955" width="0.1524" layer="1"/>
</signal>
<signal name="OSC">
<contactref element="IC2" pad="1"/>
<contactref element="IC3" pad="10"/>
<contactref element="Q1" pad="3"/>
<contactref element="R1" pad="2"/>
<contactref element="C3" pad="1"/>
<contactref element="IC1" pad="4"/>
<wire x1="18.3134" y1="15.875" x2="16.51" y2="15.875" width="0.1524" layer="1"/>
<wire x1="16.51" y1="15.875" x2="15.875" y2="16.51" width="0.1524" layer="1"/>
<wire x1="15.875" y1="16.51" x2="10.95375" y2="16.51" width="0.1524" layer="1"/>
<wire x1="10.95375" y1="16.51" x2="10.63625" y2="16.1925" width="0.1524" layer="1"/>
<wire x1="10.63625" y1="16.1925" x2="10.63625" y2="14.9225" width="0.1524" layer="1"/>
<wire x1="10.63625" y1="14.9225" x2="10.31875" y2="14.605" width="0.1524" layer="1"/>
<wire x1="10.31875" y1="14.605" x2="9.1059" y2="14.605" width="0.1524" layer="1"/>
<wire x1="18.3134" y1="15.875" x2="19.685" y2="15.875" width="0.1524" layer="1"/>
<wire x1="19.685" y1="15.875" x2="20.0025" y2="16.1925" width="0.1524" layer="1"/>
<wire x1="20.0025" y1="16.1925" x2="20.0025" y2="21.2725" width="0.1524" layer="1"/>
<wire x1="20.0025" y1="21.2725" x2="19.685" y2="21.59" width="0.1524" layer="1"/>
<wire x1="19.685" y1="21.59" x2="16.1925" y2="21.59" width="0.1524" layer="1"/>
<wire x1="16.1925" y1="21.59" x2="14.2875" y2="23.495" width="0.1524" layer="1"/>
<wire x1="14.2875" y1="23.495" x2="14.2875" y2="24.13" width="0.1524" layer="1"/>
<wire x1="14.2875" y1="24.13" x2="13.97" y2="24.4475" width="0.1524" layer="1"/>
<wire x1="13.97" y1="24.4475" x2="13.97" y2="26.035" width="0.1524" layer="1"/>
<wire x1="13.97" y1="26.035" x2="14.2875" y2="26.3525" width="0.1524" layer="1"/>
<wire x1="14.2875" y1="26.3525" x2="16.8275" y2="26.3525" width="0.1524" layer="1"/>
<wire x1="16.8275" y1="26.3525" x2="17.4625" y2="26.9875" width="0.1524" layer="1"/>
<wire x1="17.4625" y1="26.9875" x2="17.4625" y2="31.242" width="0.1524" layer="1"/>
<contactref element="R6" pad="2"/>
<contactref element="R6" pad="3"/>
<wire x1="16.8275" y1="33.625" x2="16.8275" y2="33.655" width="0.1524" layer="1"/>
<wire x1="16.8275" y1="33.655" x2="15.875" y2="34.6075" width="0.1524" layer="1"/>
<wire x1="15.875" y1="34.6075" x2="15.875" y2="36.1025" width="0.1524" layer="1"/>
<wire x1="15.875" y1="36.1025" x2="15.8275" y2="36.15" width="0.1524" layer="1"/>
<wire x1="13.97" y1="34.075" x2="13.97" y2="33.9725" width="0.1524" layer="1"/>
<wire x1="13.97" y1="33.9725" x2="16.48" y2="33.9725" width="0.1524" layer="1"/>
<wire x1="16.48" y1="33.9725" x2="16.8275" y2="33.625" width="0.1524" layer="1"/>
<wire x1="11.46" y1="33.975" x2="11.4325" y2="33.975" width="0.1524" layer="1"/>
<wire x1="11.4325" y1="33.975" x2="11.43" y2="33.9725" width="0.1524" layer="1"/>
<wire x1="11.43" y1="33.9725" x2="13.8675" y2="33.9725" width="0.1524" layer="1"/>
<wire x1="13.8675" y1="33.9725" x2="13.97" y2="34.075" width="0.1524" layer="1"/>
<wire x1="16.8275" y1="32.0675" x2="15.1375" y2="32.0675" width="0.1524" layer="1"/>
<wire x1="16.8275" y1="33.625" x2="16.8275" y2="32.0675" width="0.1524" layer="1"/>
<wire x1="21.59" y1="31.242" x2="17.4625" y2="31.242" width="0.1524" layer="1"/>
<wire x1="17.4625" y1="31.242" x2="17.4625" y2="31.4325" width="0.1524" layer="1"/>
<wire x1="17.4625" y1="31.4325" x2="16.8275" y2="32.0675" width="0.1524" layer="1"/>
</signal>
<signal name="N$10">
<contactref element="IC3" pad="12"/>
<contactref element="IC3" pad="5"/>
<contactref element="IC2" pad="4"/>
<wire x1="18.3134" y1="18.415" x2="12.1666" y2="18.415" width="0.1524" layer="1"/>
<wire x1="12.1666" y1="18.415" x2="9.1059" y2="18.415" width="0.1524" layer="1"/>
</signal>
<signal name="N$13">
<contactref element="SJ1" pad="1"/>
<contactref element="IC3" pad="7"/>
<wire x1="22.5425" y1="8.9535" x2="21.5265" y2="8.9535" width="0.1524" layer="1"/>
<wire x1="21.5265" y1="8.9535" x2="20.955" y2="9.525" width="0.1524" layer="1"/>
<wire x1="20.955" y1="9.525" x2="20.955" y2="11.43" width="0.1524" layer="1"/>
<wire x1="20.955" y1="11.43" x2="20.32" y2="12.065" width="0.1524" layer="1"/>
<wire x1="20.32" y1="12.065" x2="15.875" y2="12.065" width="0.1524" layer="1"/>
<wire x1="15.875" y1="12.065" x2="15.24" y2="12.7" width="0.1524" layer="1"/>
<wire x1="15.24" y1="12.7" x2="15.24" y2="15.24" width="0.1524" layer="1"/>
<wire x1="15.24" y1="15.24" x2="14.605" y2="15.875" width="0.1524" layer="1"/>
<wire x1="14.605" y1="15.875" x2="12.1666" y2="15.875" width="0.1524" layer="1"/>
</signal>
<signal name="N$14">
<contactref element="IC3" pad="9"/>
<contactref element="SJ1" pad="3"/>
<wire x1="18.3134" y1="14.605" x2="20.0025" y2="14.605" width="0.1524" layer="1"/>
<wire x1="20.0025" y1="14.605" x2="20.6375" y2="13.97" width="0.1524" layer="1"/>
<wire x1="20.6375" y1="13.97" x2="20.6375" y2="12.7" width="0.1524" layer="1"/>
<wire x1="20.6375" y1="12.7" x2="21.2725" y2="12.065" width="0.1524" layer="1"/>
<wire x1="21.2725" y1="12.065" x2="22.5425" y2="12.065" width="0.1524" layer="1"/>
<wire x1="22.5425" y1="12.065" x2="22.5425" y2="12.0015" width="0.1524" layer="1"/>
</signal>
<signal name="OUT_SOFT">
<contactref element="JP1" pad="4"/>
<contactref element="R5" pad="2"/>
<wire x1="22.86" y1="17.78" x2="25.0825" y2="17.78" width="0.1524" layer="1"/>
<wire x1="25.0825" y1="17.78" x2="25.7175" y2="17.145" width="0.1524" layer="1"/>
<wire x1="25.7175" y1="17.145" x2="25.7175" y2="12.28" width="0.1524" layer="1"/>
</signal>
<signal name="OUT4">
<contactref element="IC2" pad="14"/>
<contactref element="IC4" pad="10"/>
<wire x1="3.81" y1="11.43" x2="6.0325" y2="11.43" width="0.1524" layer="1"/>
<wire x1="6.0325" y1="11.43" x2="7.9375" y2="9.525" width="0.1524" layer="1"/>
<wire x1="7.9375" y1="9.525" x2="7.9375" y2="8.255" width="0.1524" layer="1"/>
<wire x1="7.9375" y1="8.255" x2="8.255" y2="7.9375" width="0.1524" layer="1"/>
<wire x1="8.255" y1="7.9375" x2="15.875" y2="7.9375" width="0.1524" layer="1"/>
<wire x1="15.875" y1="7.9375" x2="16.8275" y2="6.985" width="0.1524" layer="1"/>
<wire x1="16.8275" y1="6.985" x2="18.0975" y2="6.985" width="0.1524" layer="1"/>
<wire x1="18.0975" y1="6.985" x2="18.7325" y2="7.62" width="0.1524" layer="1"/>
<wire x1="18.7325" y1="7.62" x2="18.7325" y2="9.7409" width="0.1524" layer="1"/>
<wire x1="3.81" y1="11.43" x2="1.27" y2="13.97" width="0.1524" layer="1"/>
<wire x1="1.27" y1="13.97" x2="1.27" y2="16.8275" width="0.1524" layer="1"/>
<wire x1="1.27" y1="16.8275" x2="1.5875" y2="17.145" width="0.1524" layer="1"/>
<wire x1="1.5875" y1="17.145" x2="2.9591" y2="17.145" width="0.1524" layer="1"/>
</signal>
<signal name="OUT_LED">
<contactref element="IC4" pad="2"/>
<contactref element="R2" pad="1"/>
<wire x1="12.3825" y1="3.5941" x2="12.3825" y2="5.08" width="0.1524" layer="1"/>
<wire x1="12.3825" y1="5.08" x2="11.7475" y2="5.715" width="0.1524" layer="1"/>
<wire x1="11.7475" y1="5.715" x2="9.31" y2="5.715" width="0.1524" layer="1"/>
<wire x1="9.31" y1="5.715" x2="9.2075" y2="5.6125" width="0.1524" layer="1"/>
</signal>
<signal name="OUT_LED_R">
<contactref element="R2" pad="2"/>
<contactref element="LED1" pad="A"/>
<wire x1="5.08" y1="10.16" x2="6.0325" y2="10.16" width="0.1524" layer="1"/>
<wire x1="6.0325" y1="10.16" x2="7.3025" y2="8.89" width="0.1524" layer="1"/>
<wire x1="7.3025" y1="8.89" x2="7.3025" y2="4.7625" width="0.1524" layer="1"/>
<wire x1="7.3025" y1="4.7625" x2="7.9375" y2="4.1275" width="0.1524" layer="1"/>
<wire x1="7.9375" y1="4.1275" x2="8.9925" y2="4.1275" width="0.1524" layer="1"/>
<wire x1="8.9925" y1="4.1275" x2="9.2075" y2="3.9125" width="0.1524" layer="1"/>
</signal>
<signal name="N$1">
<wire x1="24.13" y1="1.905" x2="26.3525" y2="1.905" width="0.3048" layer="1"/>
</signal>
<signal name="N$3">
<wire x1="24.13" y1="1.27" x2="24.4475" y2="1.27" width="0.3048" layer="1"/>
</signal>
<signal name="N$4">
<wire x1="25.0825" y1="1.27" x2="25.4" y2="1.27" width="0.3048" layer="1"/>
</signal>
<signal name="N$5">
<wire x1="26.035" y1="1.27" x2="26.3525" y2="1.27" width="0.3048" layer="1"/>
</signal>
</signals>
<errors>
<approved hash="19,1,16070f00aa3b9434"/>
</errors>
</board>
</drawing>
</eagle>
