G75*
%MOIN*%
%OFA0B0*%
%FSLAX24Y24*%
%IPPOS*%
%LPD*%
%AMOC8*
5,1,8,0,0,1.08239X$1,22.5*
%
%ADD10C,0.0600*%
%ADD11C,0.0787*%
%ADD12C,0.0120*%
%ADD13C,0.0278*%
D10*
X008200Y009035D02*
X008800Y009035D01*
X008800Y010035D02*
X008200Y010035D01*
X008200Y011035D02*
X008800Y011035D01*
X008800Y012035D02*
X008200Y012035D01*
X008200Y013035D02*
X008800Y013035D01*
X008800Y014035D02*
X008200Y014035D01*
X008200Y015035D02*
X008800Y015035D01*
D11*
X002075Y015019D02*
X001287Y015019D01*
X001287Y013051D02*
X002075Y013051D01*
X002075Y003019D02*
X001287Y003019D01*
X001287Y001051D02*
X002075Y001051D01*
D12*
X000757Y000417D02*
X000757Y015653D01*
X009993Y015653D01*
X009993Y000417D01*
X000757Y000417D01*
X000757Y000509D02*
X009993Y000509D01*
X009993Y000628D02*
X002378Y000628D01*
X002366Y000615D02*
X002510Y000760D01*
X002589Y000949D01*
X002589Y001153D01*
X002510Y001342D01*
X002366Y001486D01*
X002177Y001564D01*
X001185Y001564D01*
X000996Y001486D01*
X000852Y001342D01*
X000774Y001153D01*
X000774Y000949D01*
X000852Y000760D01*
X000996Y000615D01*
X001185Y000537D01*
X002177Y000537D01*
X002366Y000615D01*
X002497Y000746D02*
X009993Y000746D01*
X009993Y000865D02*
X002554Y000865D01*
X002589Y000983D02*
X009993Y000983D01*
X009993Y001102D02*
X002589Y001102D01*
X002561Y001220D02*
X009993Y001220D01*
X009993Y001339D02*
X002512Y001339D01*
X002395Y001457D02*
X009993Y001457D01*
X009993Y001576D02*
X000757Y001576D01*
X000757Y001694D02*
X009993Y001694D01*
X009993Y001813D02*
X000757Y001813D01*
X000757Y001931D02*
X009993Y001931D01*
X009993Y002050D02*
X000757Y002050D01*
X000757Y002168D02*
X009993Y002168D01*
X009993Y002287D02*
X000757Y002287D01*
X000757Y002405D02*
X009993Y002405D01*
X009993Y002524D02*
X002220Y002524D01*
X002177Y002506D02*
X002366Y002584D01*
X002510Y002728D01*
X002589Y002917D01*
X002589Y003121D01*
X002510Y003310D01*
X002366Y003455D01*
X002177Y003533D01*
X001185Y003533D01*
X000996Y003455D01*
X000852Y003310D01*
X000774Y003121D01*
X000774Y002917D01*
X000852Y002728D01*
X000996Y002584D01*
X001185Y002506D01*
X002177Y002506D01*
X002424Y002642D02*
X009993Y002642D01*
X009993Y002761D02*
X002524Y002761D01*
X002573Y002879D02*
X009993Y002879D01*
X009993Y002998D02*
X002589Y002998D01*
X002589Y003116D02*
X009993Y003116D01*
X009993Y003235D02*
X002542Y003235D01*
X002468Y003353D02*
X009993Y003353D01*
X009993Y003472D02*
X002325Y003472D01*
X001142Y002524D02*
X000757Y002524D01*
X000757Y002642D02*
X000938Y002642D01*
X000839Y002761D02*
X000757Y002761D01*
X000757Y002879D02*
X000789Y002879D01*
X000774Y002998D02*
X000757Y002998D01*
X000757Y003116D02*
X000774Y003116D01*
X000757Y003235D02*
X000821Y003235D01*
X000757Y003353D02*
X000895Y003353D01*
X000757Y003472D02*
X001037Y003472D01*
X000757Y003590D02*
X009993Y003590D01*
X009993Y003709D02*
X000757Y003709D01*
X000757Y003827D02*
X009993Y003827D01*
X009993Y003946D02*
X000757Y003946D01*
X000757Y004064D02*
X009993Y004064D01*
X009993Y004183D02*
X000757Y004183D01*
X000757Y004301D02*
X009993Y004301D01*
X009993Y004420D02*
X000757Y004420D01*
X000757Y004538D02*
X009993Y004538D01*
X009993Y004657D02*
X000757Y004657D01*
X000757Y004775D02*
X009993Y004775D01*
X009993Y004894D02*
X000757Y004894D01*
X000757Y005012D02*
X009993Y005012D01*
X009993Y005131D02*
X000757Y005131D01*
X000757Y005249D02*
X009993Y005249D01*
X009993Y005368D02*
X000757Y005368D01*
X000757Y005486D02*
X009993Y005486D01*
X009993Y005605D02*
X000757Y005605D01*
X000757Y005723D02*
X009993Y005723D01*
X009993Y005842D02*
X000757Y005842D01*
X000757Y005960D02*
X009993Y005960D01*
X009993Y006079D02*
X000757Y006079D01*
X000757Y006197D02*
X009993Y006197D01*
X009993Y006316D02*
X000757Y006316D01*
X000757Y006434D02*
X009993Y006434D01*
X009993Y006553D02*
X000757Y006553D01*
X000757Y006671D02*
X009993Y006671D01*
X009993Y006790D02*
X000757Y006790D01*
X000757Y006908D02*
X009993Y006908D01*
X009993Y007027D02*
X000757Y007027D01*
X000757Y007145D02*
X009993Y007145D01*
X009993Y007264D02*
X000757Y007264D01*
X000757Y007382D02*
X009993Y007382D01*
X009993Y007501D02*
X000757Y007501D01*
X000757Y007619D02*
X009993Y007619D01*
X009993Y007738D02*
X000757Y007738D01*
X000757Y007856D02*
X009993Y007856D01*
X009993Y007975D02*
X000757Y007975D01*
X000757Y008093D02*
X009993Y008093D01*
X009993Y008212D02*
X000757Y008212D01*
X000757Y008330D02*
X009993Y008330D01*
X009993Y008449D02*
X000757Y008449D01*
X000757Y008567D02*
X009993Y008567D01*
X009993Y008686D02*
X009044Y008686D01*
X009038Y008679D02*
X008884Y008615D01*
X008116Y008615D01*
X007962Y008679D01*
X007844Y008797D01*
X007780Y008951D01*
X007780Y009119D01*
X007844Y009273D01*
X007962Y009391D01*
X008116Y009455D01*
X008884Y009455D01*
X009038Y009391D01*
X009156Y009273D01*
X009220Y009119D01*
X009220Y008951D01*
X009156Y008797D01*
X009038Y008679D01*
X009159Y008804D02*
X009993Y008804D01*
X009993Y008923D02*
X009208Y008923D01*
X009220Y009041D02*
X009993Y009041D01*
X009993Y009160D02*
X009203Y009160D01*
X009151Y009278D02*
X009993Y009278D01*
X009993Y009397D02*
X009025Y009397D01*
X008928Y009634D02*
X009993Y009634D01*
X009993Y009752D02*
X009111Y009752D01*
X009156Y009797D02*
X009220Y009951D01*
X009220Y010119D01*
X009156Y010273D01*
X009038Y010391D01*
X008884Y010455D01*
X008116Y010455D01*
X007962Y010391D01*
X007844Y010273D01*
X007780Y010119D01*
X007780Y009951D01*
X007844Y009797D01*
X007962Y009679D01*
X008116Y009615D01*
X008884Y009615D01*
X009038Y009679D01*
X009156Y009797D01*
X009186Y009871D02*
X009993Y009871D01*
X009993Y009989D02*
X009220Y009989D01*
X009220Y010108D02*
X009993Y010108D01*
X009993Y010226D02*
X009175Y010226D01*
X009084Y010345D02*
X009993Y010345D01*
X009993Y010463D02*
X000757Y010463D01*
X000757Y010345D02*
X007916Y010345D01*
X007825Y010226D02*
X000757Y010226D01*
X000757Y010108D02*
X007780Y010108D01*
X007780Y009989D02*
X000757Y009989D01*
X000757Y009871D02*
X007814Y009871D01*
X007889Y009752D02*
X000757Y009752D01*
X000757Y009634D02*
X008072Y009634D01*
X007975Y009397D02*
X000757Y009397D01*
X000757Y009515D02*
X009993Y009515D01*
X009993Y010582D02*
X000757Y010582D01*
X000757Y010700D02*
X007941Y010700D01*
X007962Y010679D02*
X008116Y010615D01*
X008884Y010615D01*
X009038Y010679D01*
X009156Y010797D01*
X009220Y010951D01*
X009220Y011119D01*
X009156Y011273D01*
X009038Y011391D01*
X008884Y011455D01*
X008116Y011455D01*
X007962Y011391D01*
X007844Y011273D01*
X007780Y011119D01*
X007780Y010951D01*
X007844Y010797D01*
X007962Y010679D01*
X007835Y010819D02*
X000757Y010819D01*
X000757Y010937D02*
X007786Y010937D01*
X007780Y011056D02*
X000757Y011056D01*
X000757Y011174D02*
X007803Y011174D01*
X007864Y011293D02*
X000757Y011293D01*
X000757Y011411D02*
X008010Y011411D01*
X008116Y011615D02*
X007962Y011679D01*
X007844Y011797D01*
X007780Y011951D01*
X007780Y012119D01*
X007844Y012273D01*
X007962Y012391D01*
X008116Y012455D01*
X008884Y012455D01*
X009038Y012391D01*
X009156Y012273D01*
X009220Y012119D01*
X009220Y011951D01*
X009156Y011797D01*
X009038Y011679D01*
X008884Y011615D01*
X008116Y011615D01*
X008037Y011648D02*
X000757Y011648D01*
X000757Y011530D02*
X009993Y011530D01*
X009993Y011648D02*
X008963Y011648D01*
X009125Y011767D02*
X009993Y011767D01*
X009993Y011885D02*
X009192Y011885D01*
X009220Y012004D02*
X009993Y012004D01*
X009993Y012122D02*
X009219Y012122D01*
X009169Y012241D02*
X009993Y012241D01*
X009993Y012359D02*
X009070Y012359D01*
X008961Y012646D02*
X009020Y012676D01*
X009074Y012715D01*
X009120Y012761D01*
X009159Y012815D01*
X009189Y012874D01*
X009210Y012937D01*
X009219Y012995D01*
X008540Y012995D01*
X008540Y013075D01*
X008460Y013075D01*
X008460Y013455D01*
X008167Y013455D01*
X008102Y013445D01*
X008039Y013424D01*
X007980Y013394D01*
X007926Y013355D01*
X007880Y013309D01*
X007841Y013255D01*
X007811Y013196D01*
X007790Y013133D01*
X007781Y013075D01*
X008460Y013075D01*
X008460Y012995D01*
X008540Y012995D01*
X008540Y012615D01*
X008833Y012615D01*
X008898Y012625D01*
X008961Y012646D01*
X009073Y012715D02*
X009993Y012715D01*
X009993Y012833D02*
X009168Y012833D01*
X009212Y012952D02*
X009993Y012952D01*
X009993Y013070D02*
X008540Y013070D01*
X008540Y013075D02*
X009219Y013075D01*
X009210Y013133D01*
X009189Y013196D01*
X009159Y013255D01*
X009120Y013309D01*
X009074Y013355D01*
X009020Y013394D01*
X008961Y013424D01*
X008898Y013445D01*
X008833Y013455D01*
X008540Y013455D01*
X008540Y013075D01*
X008460Y013070D02*
X002589Y013070D01*
X002589Y013153D02*
X002510Y013342D01*
X002366Y013486D01*
X002177Y013564D01*
X001185Y013564D01*
X000996Y013486D01*
X000852Y013342D01*
X000774Y013153D01*
X000774Y012949D01*
X000852Y012760D01*
X000996Y012615D01*
X001185Y012537D01*
X002177Y012537D01*
X002366Y012615D01*
X002510Y012760D01*
X002589Y012949D01*
X002589Y013153D01*
X002574Y013189D02*
X007808Y013189D01*
X007878Y013307D02*
X002525Y013307D01*
X002427Y013426D02*
X008043Y013426D01*
X008116Y013615D02*
X008884Y013615D01*
X009038Y013679D01*
X009156Y013797D01*
X009220Y013951D01*
X009220Y014119D01*
X009156Y014273D01*
X009038Y014391D01*
X008884Y014455D01*
X008116Y014455D01*
X007962Y014391D01*
X007844Y014273D01*
X007780Y014119D01*
X007780Y013951D01*
X007844Y013797D01*
X007962Y013679D01*
X008116Y013615D01*
X008002Y013663D02*
X000757Y013663D01*
X000757Y013781D02*
X007860Y013781D01*
X007802Y013900D02*
X000757Y013900D01*
X000757Y014018D02*
X007780Y014018D01*
X007787Y014137D02*
X000757Y014137D01*
X000757Y014255D02*
X007837Y014255D01*
X007945Y014374D02*
X000757Y014374D01*
X000757Y014492D02*
X009993Y014492D01*
X009993Y014374D02*
X009055Y014374D01*
X009163Y014255D02*
X009993Y014255D01*
X009993Y014137D02*
X009213Y014137D01*
X009220Y014018D02*
X009993Y014018D01*
X009993Y013900D02*
X009198Y013900D01*
X009140Y013781D02*
X009993Y013781D01*
X009993Y013663D02*
X008998Y013663D01*
X008957Y013426D02*
X009993Y013426D01*
X009993Y013544D02*
X002226Y013544D01*
X002589Y012952D02*
X007788Y012952D01*
X007790Y012937D02*
X007811Y012874D01*
X007841Y012815D01*
X007880Y012761D01*
X007926Y012715D01*
X007980Y012676D01*
X008039Y012646D01*
X008102Y012625D01*
X008167Y012615D01*
X008460Y012615D01*
X008460Y012995D01*
X007781Y012995D01*
X007790Y012937D01*
X007832Y012833D02*
X002541Y012833D01*
X002465Y012715D02*
X007927Y012715D01*
X007930Y012359D02*
X000757Y012359D01*
X000757Y012241D02*
X007831Y012241D01*
X007781Y012122D02*
X000757Y012122D01*
X000757Y012004D02*
X007780Y012004D01*
X007808Y011885D02*
X000757Y011885D01*
X000757Y011767D02*
X007875Y011767D01*
X008460Y012715D02*
X008540Y012715D01*
X008540Y012833D02*
X008460Y012833D01*
X008460Y012952D02*
X008540Y012952D01*
X008540Y013189D02*
X008460Y013189D01*
X008460Y013307D02*
X008540Y013307D01*
X008540Y013426D02*
X008460Y013426D01*
X009122Y013307D02*
X009993Y013307D01*
X009993Y013189D02*
X009192Y013189D01*
X009993Y012596D02*
X002319Y012596D01*
X001043Y012596D02*
X000757Y012596D01*
X000757Y012478D02*
X009993Y012478D01*
X009993Y011411D02*
X008990Y011411D01*
X009136Y011293D02*
X009993Y011293D01*
X009993Y011174D02*
X009197Y011174D01*
X009220Y011056D02*
X009993Y011056D01*
X009993Y010937D02*
X009214Y010937D01*
X009165Y010819D02*
X009993Y010819D01*
X009993Y010700D02*
X009059Y010700D01*
X007849Y009278D02*
X000757Y009278D01*
X000757Y009160D02*
X007797Y009160D01*
X007780Y009041D02*
X000757Y009041D01*
X000757Y008923D02*
X007792Y008923D01*
X007841Y008804D02*
X000757Y008804D01*
X000757Y008686D02*
X007956Y008686D01*
X008116Y014615D02*
X008884Y014615D01*
X009038Y014679D01*
X009156Y014797D01*
X009220Y014951D01*
X009220Y015119D01*
X009156Y015273D01*
X009038Y015391D01*
X008884Y015455D01*
X008116Y015455D01*
X007962Y015391D01*
X007844Y015273D01*
X007780Y015119D01*
X007780Y014951D01*
X007844Y014797D01*
X007962Y014679D01*
X008116Y014615D01*
X007912Y014729D02*
X002511Y014729D01*
X002510Y014728D02*
X002589Y014917D01*
X002589Y015121D01*
X002510Y015310D01*
X002366Y015455D01*
X002177Y015533D01*
X001185Y015533D01*
X000996Y015455D01*
X000852Y015310D01*
X000774Y015121D01*
X000774Y014917D01*
X000852Y014728D01*
X000996Y014584D01*
X001185Y014506D01*
X002177Y014506D01*
X002366Y014584D01*
X002510Y014728D01*
X002560Y014848D02*
X007823Y014848D01*
X007780Y014966D02*
X002589Y014966D01*
X002589Y015085D02*
X007780Y015085D01*
X007815Y015203D02*
X002555Y015203D01*
X002499Y015322D02*
X007893Y015322D01*
X008080Y015440D02*
X002381Y015440D01*
X002393Y014611D02*
X009993Y014611D01*
X009993Y014729D02*
X009088Y014729D01*
X009177Y014848D02*
X009993Y014848D01*
X009993Y014966D02*
X009220Y014966D01*
X009220Y015085D02*
X009993Y015085D01*
X009993Y015203D02*
X009185Y015203D01*
X009107Y015322D02*
X009993Y015322D01*
X009993Y015440D02*
X008920Y015440D01*
X009993Y015559D02*
X000757Y015559D01*
X000757Y015440D02*
X000982Y015440D01*
X000863Y015322D02*
X000757Y015322D01*
X000757Y015203D02*
X000808Y015203D01*
X000774Y015085D02*
X000757Y015085D01*
X000757Y014966D02*
X000774Y014966D01*
X000757Y014848D02*
X000803Y014848D01*
X000757Y014729D02*
X000852Y014729D01*
X000757Y014611D02*
X000970Y014611D01*
X001136Y013544D02*
X000757Y013544D01*
X000757Y013426D02*
X000936Y013426D01*
X000838Y013307D02*
X000757Y013307D01*
X000757Y013189D02*
X000788Y013189D01*
X000774Y013070D02*
X000757Y013070D01*
X000757Y012952D02*
X000774Y012952D01*
X000757Y012833D02*
X000822Y012833D01*
X000757Y012715D02*
X000897Y012715D01*
X000757Y001457D02*
X000967Y001457D01*
X000851Y001339D02*
X000757Y001339D01*
X000757Y001220D02*
X000801Y001220D01*
X000774Y001102D02*
X000757Y001102D01*
X000757Y000983D02*
X000774Y000983D01*
X000757Y000865D02*
X000809Y000865D01*
X000757Y000746D02*
X000866Y000746D01*
X000757Y000628D02*
X000984Y000628D01*
D13*
X002125Y006160D03*
X006750Y010410D03*
X007500Y008410D03*
X006750Y014660D03*
M02*
